MPI startup(): Warning: I_MPI_PMI_LIBRARY will be ignored since the hydra process manager was found
MPI startup(): Warning: I_MPI_PMI_LIBRARY will be ignored since the hydra process manager was found
MPI startup(): Warning: I_MPI_PMI_LIBRARY will be ignored since the hydra process manager was found
MPI startup(): Warning: I_MPI_PMI_LIBRARY will be ignored since the hydra process manager was found
------------------------------------------------------------
          Invoking FHI-aims ...

          When using FHI-aims, please cite the following reference:

            Volker Blum, Ralf Gehrke, Felix Hanke, Paula Havu,
            Ville Havu, Xinguo Ren, Karsten Reuter, and Matthias Scheffler,
            'Ab Initio Molecular Simulations with Numeric Atom-Centered Orbitals',
            Computer Physics Communications 180, 2175-2196 (2009)

          In addition, many other developments in FHI-aims are likely important for
          your particular application. If so, please cite them. A partial list of references
          is written at the end of this file. Thank you for giving credit to the authors
          of these developments.

          For general information about FHI-aims please find us at

            https://fhi-aims.org

          Online tutorials can be found at

            https://fhi-aims-club.gitlab.io/tutorials/tutorials-overview/

          For any questions about FHI-aims, please visit our slack channel at

            https://fhi-aims.slack.com

          and our main development and support site at

            https://aims-git.rz-berlin.mpg.de .

          The latter site, in particular, has a wiki to collect information, as well
          as an issue tracker to log discussions, suggest improvements, and report issues
          or bugs. https://aims-git.rz-berlin.mpg.de is also the main development site
          of the project and all new and updated code versions can be obtained there.
          Please send an email to aims-coordinators@fhi-berlin.mpg.de and we will add
          you to these sites. They are for you and everyone is welcome there.

------------------------------------------------------------



  Date     :  20240408, Time     :  091310.564
  Time zero on CPU 1             :   0.517923000000000E+00  s.
  Internal wall clock time zero  :           481799590.564  s.

  FHI-aims created a unique identifier for this run for later identification
  aims_uuid : 92022032-9F2B-42C8-A1D2-8F51833BFFB7

  Build configuration of the current instance of FHI-aims
  -------------------------------------------------------
  FHI-aims version      : 231208
  Commit number         : 567e07285
  CMake host system     : Linux-5.15.0-91-generic
  CMake version         : 3.22.1
  Fortran compiler      : /zpool-00/space/globalspace/intel-2023.0/mpi/2021.8.0/bin/mpiifort (Intel) version 2021.8.0.20221119
  Fortran compiler flags: -O3 -ip -fp-model precise -mavx
  C compiler            : /zpool-00/space/globalspace/intel-2023.0/compiler/2023.0.0/linux/bin/intel64/icc (Intel) version 2021.8.0.20221119
  C compiler flags      : -O3 -ip -fp-model precise -std=gnu99 -mavx
  C++ compiler          : /zpool-00/space/globalspace/intel-2023.0/mpi/2021.8.0/bin/mpiicpc (Intel) version 2021.8.0.20221119
  C++ compiler flags    : -O3 -ip -fp-model precise -std=c++11
  HIP compiler          :
  HIP compiler flags    :
  HIP GPU arch          :
  ELPA2 kernel          : AVX
  Using MPI
  Using ScaLAPACK
  Using LibXC
  Using i-PI
  Using RLSY
  Linking against: /zpool-00/space/globalspace/intel-2023.0/mkl/2023.0.0/lib/intel64/libmkl_intel_lp64.so
                   /zpool-00/space/globalspace/intel-2023.0/mkl/2023.0.0/lib/intel64/libmkl_sequential.so
                   /zpool-00/space/globalspace/intel-2023.0/mkl/2023.0.0/lib/intel64/libmkl_core.so
                   /zpool-00/space/globalspace/intel-2023.0/mkl/2023.0.0/lib/intel64/libmkl_blacs_intelmpi_lp64.so
                   /zpool-00/space/globalspace/intel-2023.0/mkl/2023.0.0/lib/intel64/libmkl_scalapack_lp64.so
                   /zpool-00/space/globalspace/intel-2023.0/mkl/2023.0.0/lib/intel64/libmkl_core.so

  Using        4 parallel tasks.
  Task        0 on host timewarp-02.egr.duke.edu reporting.
  Task        1 on host timewarp-02.egr.duke.edu reporting.
  Task        2 on host timewarp-02.egr.duke.edu reporting.
  Task        3 on host timewarp-02.egr.duke.edu reporting.

  Memory overcommitment is allowed on your operating system.

  Obtaining array dimensions for all initial allocations:
  
  -----------------------------------------------------------------------
  Parsing control.in (first pass over file, find array dimensions only).
  The contents of control.in will be repeated verbatim below
  unless switched off by setting 'verbatim_writeout .false.' .
  in the first line of control.in .
  -----------------------------------------------------------------------
  
  xc              pw-lda
  spin            collinear
  relativistic    atomic_zora scalar
  
  ################################################################################
  #
  #  FHI-aims code project
  #  Volker Blum, Fritz Haber Institute Berlin, 2009
  #
  #  Suggested "tight" defaults for Si atom (to be pasted into control.in file)
  #
  #  Revised Jan 04, 2011, following tests (SiC) done by Lydia Nemec:
  #     d and g functions of tier 2 now enabled by default.
  #
  ################################################################################
    species        Si
  #     global species definitions
      nucleus             14
      mass                28.0855
  #
      l_hartree           6
  #
      cut_pot             8          1.5  1.0
      basis_dep_cutoff    0.0
  #
      radial_base         42 7.0
      radial_multiplier   2
      angular_grids       specified
        division   0.4121   50
        division   0.7665  110
        division   1.0603  194
        division   1.2846  302
        division   1.4125  434
  #      division   1.4810  590
  #      division   1.5529  770
  #      division   1.6284  974
  #      division   2.6016 1202
  #      outer_grid   974
        outer_grid  434
  ################################################################################
  #
  #  Definition of "minimal" basis
  #
  ################################################################################
  #     valence basis states
      valence      3  s   2.
      valence      3  p   2.
  #     ion occupancy
      ion_occ      3  s   1.
      ion_occ      3  p   1.
  ################################################################################
  #
  #  Suggested additional basis functions. For production calculations,
  #  uncomment them one after another (the most important basis functions are
  #  listed first).
  #
  #  Constructed for dimers: 1.75 A, 2.0 A, 2.25 A, 2.75 A, 3.75 A
  #
  ################################################################################
  #  "First tier" - improvements: -571.96 meV to -37.03 meV
       hydro 3 d 4.2
       hydro 2 p 1.4
       hydro 4 f 6.2
       ionic 3 s auto
  #  "Second tier" - improvements: -16.76 meV to -3.03 meV
       hydro 3 d 9
       hydro 5 g 9.4
       hydro 4 p 4
       hydro 1 s 0.65
  #  "Third tier" - improvements: -3.89 meV to -0.60 meV
       ionic 3 d auto
       hydro 3 s 2.6
       hydro 4 f 8.4
       hydro 3 d 3.4
       hydro 3 p 7.8
  #  "Fourth tier" - improvements: -0.33 meV to -0.11 meV
       hydro 2 p 1.6
       hydro 5 g 10.8
       hydro 5 f 11.2
       hydro 3 d 1
       hydro 4 s 4.5
  #  Further basis functions that fell out of the optimization - noise
  #  level... < -0.08 meV
       hydro 4 d 6.6
       hydro 5 g 16.4
       hydro 4 d 9
  ################################################################################
  #
  # For methods that use the localized form of the "resolution of identity" for
  # the two-electron Coulomb operator (RI_method LVL), particularly Hartree-Fock and
  # hybrid density functional calculations, the highest accuracy can be obtained by
  # uncommenting the line beginning with "for_aux"  below, thus adding an extra g radial
  # function to the construction of the product basis set for the expansion.
  # See Ref. New J. Phys. 17, 093020 (2015) for more information, particularly Figs. 1 and 6.
  #
  ################################################################################
  #
  # for_aux hydro 5 g 6.0
  
  -----------------------------------------------------------------------
  Completed first pass over input file control.in .
  -----------------------------------------------------------------------
  
  
  -----------------------------------------------------------------------
  Parsing geometry.in (first pass over file, find array dimensions only).
  The contents of geometry.in will be repeated verbatim below
  unless switched off by setting 'verbatim_writeout .false.' .
  in the first line of geometry.in .
  -----------------------------------------------------------------------
  
  atom 0. 0. 0. Si
      initial_moment 2.
  
  -----------------------------------------------------------------------
  Completed first pass over input file geometry.in .
  -----------------------------------------------------------------------
  

  Basic array size parameters:
  | Number of species                 :        1
  | Number of atoms                   :        1
  | Max. basis fn. angular momentum   :        4
  | Max. atomic/ionic basis occupied n:        3
  | Max. number of basis fn. types    :        3
  | Max. radial fns per species/type  :       19
  | Max. logarithmic grid size        :     1346
  | Max. radial integration grid size :       85
  | Max. angular integration grid size:      434
  | Max. angular grid division number :        8
  | Radial grid for Hartree potential :     1346
  | Number of spin channels           :        2

------------------------------------------------------------
          Reading file control.in.
------------------------------------------------------------
  XC: Using Perdew-Wang parametrisation of Ceperley-Alder LDA.
  Spin treatment: Spin density functional theory - collinear spins.
  Scalar relativistic treatment of kinetic energy: on-site free-atom approximation to ZORA.
 
  Reading configuration options for species Si                  .
  | Found nuclear charge :  14.0000
  | Found atomic mass :    28.0855000000000      amu
  | Found l_max for Hartree potential  :   6
  | Found cutoff potl. onset [A], width [A], scale factor :    8.00000    1.50000    1.00000
  | Threshold for basis-dependent cutoff potential is   0.000000E+00
  | Found data for basic radial integration grid :    42 points, outermost radius =    7.000 A
  | Found multiplier for basic radial grid :   2
  | Found angular grid specification: user-specified.
  | Specified grid contains     6 separate shells.
  | Check grid settings after all constraints further below.
  | Found free-atom valence shell :  3 s   2.000
  | Found free-atom valence shell :  3 p   2.000
  | Found free-ion valence shell :  3 s   1.000
  | Found free-ion valence shell :  3 p   1.000
  | Found hydrogenic basis function :  3 d   4.200
  | Found hydrogenic basis function :  2 p   1.400
  | Found hydrogenic basis function :  4 f   6.200
  | Found ionic basis function :  3 s , default cutoff radius.
  | Found hydrogenic basis function :  3 d   9.000
  | Found hydrogenic basis function :  5 g   9.400
  | Found hydrogenic basis function :  4 p   4.000
  | Found hydrogenic basis function :  1 s   0.650
  | Found ionic basis function :  3 d , default cutoff radius.
  | Found hydrogenic basis function :  3 s   2.600
  | Found hydrogenic basis function :  4 f   8.400
  | Found hydrogenic basis function :  3 d   3.400
  | Found hydrogenic basis function :  3 p   7.800
  | Found hydrogenic basis function :  2 p   1.600
  | Found hydrogenic basis function :  5 g  10.800
  | Found hydrogenic basis function :  5 f  11.200
  | Found hydrogenic basis function :  3 d   1.000
  | Found hydrogenic basis function :  4 s   4.500
  | Found hydrogenic basis function :  4 d   6.600
  | Found hydrogenic basis function :  5 g  16.400
  | Found hydrogenic basis function :  4 d   9.000
  Species Si                  : Missing cutoff potential type.
  Defaulting to exp(1/x)/(1-x)^2 type cutoff potential.
  Species Si: No 'logarithmic' tag. Using default grid for free atom:
  | Default logarithmic grid data [bohr] : 0.1000E-03 0.1000E+03 0.1012E+01
  | Will include ionic basis functions of  2.0-fold positive Si                   ion.
  Species Si: On-site basis accuracy parameter (for Gram-Schmidt orthonormalisation) not specified.
  Using default value basis_acc =  0.1000000E-03.
  Species Si                  : Using default innermost maximum threshold i_radial=  2 for radial functions.
  Species Si                  : Default cutoff onset for free atom density etc. : 0.80000000E+01 AA.
  Species Si                  : Basic radial grid will be enhanced according to radial_multiplier =   2, to contain    85 grid points.
 
  Finished reading input file 'control.in'.
 
------------------------------------------------------------


------------------------------------------------------------
          Reading geometry description geometry.in.
------------------------------------------------------------
  | Isolated single atom, no quantum-mechanical atoms close by.
  Input structure read successfully.
  The structure contains        1 atoms,  and a total of         14.000 electrons.

  Input geometry:
  | No unit cell requested.
  | Atomic structure:
  |       Atom                x [A]            y [A]            z [A]
  |    1: Species Si            0.00000000        0.00000000        0.00000000

  Initial moments and charges:
  |  Atom   Moment         Charge        Species
  |     1   0.200000E+01   0.000000E+00   Si

  Slab Identifier: This is not a periodic structure.
 
  Finished reading input file 'geometry.in'.
 

 
  Consistency checks for stacksize environment parameter are next.
 
  | Maximum stacksize for task 0: unlimited
  | Maximum stacksize for task 1: unlimited
  | Maximum stacksize for task 2: unlimited
  | Maximum stacksize for task 3: unlimited
  | Current stacksize for task 0: unlimited
  | Current stacksize for task 1: unlimited
  | Current stacksize for task 2: unlimited
  | Current stacksize for task 3: unlimited
 
  Consistency checks for the contents of control.in are next.
 
  MPI_IN_PLACE appears to work with this MPI implementation.
  | Keeping use_mpi_in_place .true. (see manual).
  Target number of points in a grid batch is not set. Defaulting to  100
  Method for grid partitioning is not set. Defaulting to parallel hash+maxmin partitioning.
  Batch size limit is not set. Defaulting to    200
  By default, will store active basis functions for each batch.
  If in need of memory, prune_basis_once .false. can be used to disable this option.
  communication_type for Hartree potential was not specified.
  Defaulting to calc_hartree .
  Defaulting to Pulay charge density mixer.
  Pulay mixer: Number of relevant iterations not set.
  Defaulting to    8 iterations.
  Pulay mixer: Number of initial linear mixing iterations not set.
  Defaulting to    0 iterations.
  Work space size for distributed Hartree potential not set.
  Defaulting to   0.200000E+03 MB.
  Mixing parameter for charge density mixing has not been set.
  Using default: charge_mix_param =     0.0500.
  The mixing parameter will be adjusted in iteration number     2 of the first full s.c.f. cycle only.
  Mixing parameter for spin density mixing has not been set.
  Using charge_mix_param as default:     0.0500.
  Algorithm-dependent basis array size parameters:
  | n_max_pulay                         :        8
  Maximum number of self-consistency iterations not provided.
  Presetting  1000 iterations.
  Presetting      1001 iterations before the initial mixing cycle
  is restarted anyway using the sc_init_iter criterion / keyword.
  Presetting a factor      1.000 between actual scf density residual
  and density convergence criterion sc_accuracy_rho below which sc_init_iter
  takes no effect.
 * No s.c.f. convergence criteria (sc_accuracy_*) were provided in control.in.
 * The run will proceed with a reasonable default guess, but please check whether.
 * the s.c.f. cycles seem to take too much or too little time.
  Calculation of forces was not defined in control.in. No forces will be calculated.
  Geometry relaxation not requested: no relaxation will be performed.
 * Notice: The s.c.f. convergence criterion sc_accuracy_rho was not provided.
 * We used to stop in this case, and ask the user to provide reasonable
 * scf convergence criteria. However, this led some users to employ criteria
 * that led to extremely long run times, e.g., for simple relaxation.
 * We now preset a default value for sc_accuracy_rho if it is not set.
 * You may still wish to check if this setting is too tight or too loose for your needs.
 * Based on n_atoms and forces and force-correction status, FHI-aims chose sc_accuracy_rho =  0.800000E-05 .
  No accuracy limit for integral partition fn. given. Defaulting to  0.1000E-14.
  No threshold value for u(r) in integrations given. Defaulting to  0.1000E-05.
  No occupation type (smearing scheme) given. Defaulting to Gaussian broadening, width =  0.1000E-01 eV.
  The width will be adjusted in iteration number     2 of the first full s.c.f. cycle only.
  S.C.F. convergence parameters will be adjusted in iteration number     2 of the first full s.c.f. cycle only.
  No accuracy for occupation numbers given. Defaulting to  0.1000E-12.
  No threshold value for occupation numbers given. Defaulting to  0.0000E+00.
  No accuracy for fermi level given. Defaulting to  0.1000E-19.
  Maximum # of iterations to find E_F not set. Defaulting to  200.
  Preferred method for the eigenvalue solver ('KS_method') not specified in 'control.in'.
  Calling BLACS routine to test compilation state
  Since ScaLAPACK support is enabled, defaulting to ELPA (via ELSI).
  Will not use alltoall communication since running on < 1024 CPUs.
  Threshold for basis singularities not set.
  Default threshold for basis singularities:  0.1000E-04
  partition_type (choice of integration weights) for integrals was not specified.
  | Using a version of the partition function of Stratmann and coworkers ('stratmann_sparse').
  | At each grid point, the set of atoms used to build the partition table is smoothly restricted to
  | only those atoms whose free-atom density would be non-zero at that grid point.
  Partitioning for Hartree potential was not defined. Using partition_type for integrals.
  | Adjusted default value of keyword multip_moments_threshold to:       0.10000000E-11
  | This value may affect high angular momentum components of the Hartree potential in periodic systems.
  No q(lm)/r^(l+1) cutoff set for long-range Hartree potential.
  | Using default value of  0.100000E-09 .
  | Verify using the multipole_threshold keyword.
  Defaulting to new monopole extrapolation.
  Density update method: automatic selection selected.
  Charge integration errors on the 3D integration grid will be compensated
  by explicit normalization and distribution of residual charges.
  Use the "compensate_multipole_errors" flag to change this behaviour.
  Set 'collect_eigenvectors' to be '.true.' for use_density_matrix .false.
 
  Consistency checks for the contents of geometry.in are next.
 
  Number of empty states per atom not set in control.in - providing a guess from actual geometry.
  | Total number of empty states used during s.c.f. cycle:        3
  If you use a very high smearing, use empty_states (per atom!) in control.in to increase this value.

  Structure-dependent array size parameters: 
  | Number of distinct atom types in initial rho :        1
  | Maximum number of distinct radial functions  :       26
  | Maximum number of basis functions            :      108
  | Number of Kohn-Sham states (occupied + empty):       10
------------------------------------------------------------
  After read_input_data [GB]:     37.23

  Performing system and environment tests:
  | Environment variable OMP_NUM_THREADS correctly set to 1.
  | Checking for ScaLAPACK...
  | Testing pdtran()...
  | All pdtran() tests passed.
  After prepare_system [GB]:     37.24

------------------------------------------------------------
          Preparing all fixed parts of the calculation.
------------------------------------------------------------
  Determining machine precision:
    2.225073858507201E-308
  Setting up grids for atomic and cluster calculations.

  Creating wave function, potential, and density for free atoms.
  Runtime choices for atomic solver:
  | atomic solver xc        : PW-LDA
  | compute density gradient: 0
  | compute kinetic density : F

  Species: Si

  List of occupied orbitals and eigenvalues:
    n    l              occ      energy [Ha]    energy [eV]
    1    0           2.0000       -65.503883     -1782.4513
    2    0           2.0000        -5.099580      -138.7666
    3    0           2.0000        -0.399778       -10.8785
    2    1           6.0000        -3.513904       -95.6182
    3    1           2.0000        -0.152973        -4.1626

  Spin-polarized or charged system:
  Charge density initialized according to selected moments and charges.

  Creating spin-polarized density from free atoms.

  Species: Si
  Charge:   0.000000
  Moment:   2.000000

  List of occupied orbitals and eigenvalues:
    n    l      energy [Ha]    energy [eV]    occupation
  Spin-up
    1    0       -65.497093     -1782.2666     1.00000000
    2    0        -5.094240      -138.6213     1.00000000
    3    0        -0.418099       -11.3771     1.00000000
    2    1        -3.509434       -95.4966     3.00000000
    3    1        -0.169579        -4.6145     2.00000000
  Spin-down
    1    0       -65.490904     -1782.0982     1.00000000
    2    0        -5.086861      -138.4205     1.00000000
    3    0        -0.363649        -9.8954     1.00000000
    2    1        -3.500135       -95.2435     3.00000000
    3    1        -0.120954        -3.2913     0.00000000


  Adding cutoff potential to free-atom effective potential.
  Creating fixed part of basis set: Ionic, confined, hydrogenic.
 
  Si                   ion:

  List of free ionic orbitals and eigenvalues:
    n    l      energy [Ha]    energy [eV]
    1    0       -66.364436     -1805.8682
    2    0        -5.935799      -161.5213
    3    0        -1.078166       -29.3384
    2    1        -4.351123      -118.4001
    3    1        -0.781733       -21.2720


  List of ionic basis orbitals and eigenvalues:
    n    l      energy [Ha]    energy [eV]    outer radius [A]
    3    0        -1.078166       -29.3384       7.041889
    3    2        -0.414868       -11.2891       8.775170

 
  Si                   hydrogenic:
 
  List of hydrogenic basis orbitals: 
    n    l      effective z      eigenvalue [eV]  inner max. [A]     outer max. [A]     outer radius [A]   
    3    2         4.200000       -26.6672           1.139231           1.139231           8.254852
    2    1         1.400000        -6.6668           1.509123           1.509123           8.883104
    4    3         6.200000       -32.6877           1.368518           1.368518           8.254852
    3    2         9.000000      -122.4512           0.527387           0.527387           4.012952
    5    4         9.400000       -48.0880           1.402391           1.402391           7.485751
    4    1         4.000000       -13.6056           0.374516           3.104344           8.992367
    1    0         0.650000        -5.7484           0.818959           0.818959           8.883104
    3    0         2.600000       -10.2193           0.149719           2.648193           8.992367
    4    3         8.400000       -60.0011           1.008137           1.008137           6.231559
    3    2         3.400000       -17.4758           1.402391           1.402391           8.668546
    3    1         7.800000       -91.9745           0.203240           0.818959           4.762044
    2    1         1.600000        -8.7076           1.319237           1.319237           8.883104
    5    4        10.800000       -63.4787           1.225935           1.225935           6.543855
    5    3        11.200000       -68.2679           0.574506           1.546475           6.624345
    3    2         1.000000        -1.3487           4.318366           4.318366           9.102973
    4    0         4.500000       -17.2197           0.086370           2.884791           8.883104
    4    2         6.600000       -37.0415           0.547088           1.705363           8.154551
    5    4        16.400000      -146.3755           0.809009           0.809009           4.371482
    4    2         9.000000       -68.8788           0.398123           1.241014           6.081045
 
  Creating atomic-like basis functions for current effective potential.

  Species Si                  :

  List of atomic basis orbitals and eigenvalues:
    n    l      energy [Ha]    energy [eV]    outer radius [A]
    1    0       -65.503883     -1782.4513       0.789468
    2    0        -5.099580      -138.7666       2.815114
    3    0        -0.399778       -10.8785       8.563219
    2    1        -3.513904       -95.6182       3.259919
    3    1        -0.152973        -4.1626       8.883104

  Assembling full basis from fixed parts.
  | Species Si :   atomic orbital   1 s accepted.
  | Species Si :   atomic orbital   2 s accepted.
  | Species Si :   atomic orbital   3 s accepted.
  | Species Si :    ionic orbital   3 s accepted.
  | Species Si :    hydro orbital   1 s accepted.
  | Species Si :    hydro orbital   3 s accepted.
  | Species Si :    hydro orbital   4 s accepted.
  | Species Si :   atomic orbital   2 p accepted.
  | Species Si :   atomic orbital   3 p accepted.
  | Species Si :    hydro orbital   2 p accepted.
  | Species Si :    hydro orbital   4 p accepted.
  | Species Si :    hydro orbital   3 p accepted.
  | Species Si :    hydro orbital   2 p accepted.
  | Species Si :    ionic orbital   3 d accepted.
  | Species Si :    hydro orbital   3 d accepted.
  | Species Si :    hydro orbital   3 d accepted.
  | Species Si :    hydro orbital   3 d accepted.
  | Species Si :    hydro orbital   3 d accepted.
  | Species Si :    hydro orbital   4 d accepted.
  | Species Si :    hydro orbital   4 d accepted.
  | Species Si :    hydro orbital   4 f accepted.
  | Species Si :    hydro orbital   4 f accepted.
  | Species Si :    hydro orbital   5 f accepted.
  | Species Si :    hydro orbital   5 g accepted.
  | Species Si :    hydro orbital   5 g accepted.
  | Species Si :    hydro orbital   5 g accepted.
 
  Basis size parameters after reduction:
  | Total number of radial functions:       26
  | Total number of basis functions :      108
 
  Per-task memory consumption for arrays in subroutine allocate_ext:
  |           8.962620MB.
  Testing on-site integration grid accuracy.
  |  Species  Function  <phi|h_atom|phi> (log., in eV)  <phi|h_atom|phi> (rad., in eV)
           1        1              -1782.4513391676              -1782.4513080660
           1        2               -138.7666241540               -138.7666236817
           1        3                -10.8785140983                -10.8785140597
           1        4                  4.9505371825                  4.9505371756
           1        5                 30.3644883937                 30.3643487569
           1        6                138.0319712005                138.0321669257
           1        7                469.6494476365                469.6577731732
           1        8                -95.6181802064                -95.6181800853
           1        9                 -4.1626005410                 -4.1626024494
           1       10                  3.6345112943                  3.6344409684
           1       11                 20.7847446723                 20.7847404714
           1       12                319.4358690238                319.4349240024
           1       13                 24.3735053615                 24.3681827892
           1       14                  4.2745256332                  4.2745255197
           1       15                 13.0363624982                 13.0363598895
           1       16                 61.5849909386                 61.5849906016
           1       17                 34.3851596178                 34.3850235012
           1       18                 27.7381476469                 27.6445174064 ***
           1       19                170.7908908099                170.7852846085
           1       20                144.7974426680                144.7176871924 ***
           1       21                 19.0573310096                 19.0573310045
           1       22                 49.7058337148                 49.7058336883
           1       23                 86.3878089454                 86.3878087046
           1       24                 35.5931702110                 35.5931701759
           1       25                 64.1690247659                 64.1690248399
           1       26                156.4962225079                156.4962218540
 * Note: Onsite integrals marked "***" above are less accurate than
 * onsite_accuracy_threshold =    0.03000 eV. Usually, this is harmless.
 * When in doubt, tighten the "radial" and/or "radial_multiplier" flags to check.

  Preparing densities etc. for the partition functions (integrals / Hartree potential).

  Preparations completed.
  max(cpu_time)          :      0.297 s.
  Wall clock time (cpu1) :      0.297 s.
------------------------------------------------------------
  After prepare_scf [GB]:     37.12

  Initializing index lists of integration centers etc. from given atomic structure:
  | Number of centers in hartree potential         :         1
  | Number of centers in hartree multipole         :         1
  | Number of centers in electron density summation:         1
  | Number of centers in basis integrals           :         1
  | Number of centers in integrals                 :         1
  | Number of centers in hamiltonian               :         1
  After initialize_bc_dependent_lists [GB]:     37.12

------------------------------------------------------------
          Begin self-consistency loop: Initialization.

          Date     :  20240408, Time     :  091311.000
------------------------------------------------------------
  Available memory per node after initialize_hartree_non_periodic_ewald [GB]:     37.12
  Available memory per node after initialize_recip_hartree_potential [GB]:     37.12
  * Using 4 tasks for Scalapack Eigenvalue solver.
  Detailed listing of tasks and assigned k-points:
  (for non-periodic systems, the "k-point" denotes an internal label only)
   Task     0 k-point     1 on timewarp-02.egr.duke.edu
   Task     1 k-point     1 on timewarp-02.egr.duke.edu
   Task     2 k-point     1 on timewarp-02.egr.duke.edu
   Task     3 k-point     1 on timewarp-02.egr.duke.edu
  Tasks:     4 split into      2 X      2 BLACS grid
  Calculating block size based on n_basis =          108  max_nprow =            2  max_npcol =            2
  ScaLAPACK block size set to:           16
  Allocating        0.027 MB for ovlp
  Allocating        0.055 MB for ham
  Allocating        0.055 MB for eigenvec
  Required Scalapack workspace - INTEGER:            1  REAL:             1
  Available memory per node after initialize_scalapack [GB]:     37.12
  Available memory per node after aims_elsi_init_scf [GB]:     37.12
  Available memory per node after initialize_fixed_grids [GB]:     37.12
  Partitioning the integration grid into batches with parallel hashing+maxmin method.
  | Number of batches:      256
  | Maximal batch size:      89
  | Minimal batch size:      58
  | Average batch size:      69.992
  | Standard deviation of batch sizes:       7.939

  Integration load balanced across     4 MPI tasks.
  Work distribution over tasks is as follows:
  Task     0 has       4449 integration points.
  Task     1 has       4479 integration points.
  Task     2 has       4479 integration points.
  Task     3 has       4511 integration points.
  Available memory per node after partition_grid [GB]:     37.12
  Initializing partition tables, free-atom densities, potentials, etc. across the integration grid (initialize_grid_storage).
  | initialize_grid_storage: Actual outermost partition radius vs. multipole_radius_free
  | (-- VB: in principle, multipole_radius_free should be larger, hence this output)
  | Species        1: Confinement radius =              9.500000000000000 AA, multipole_radius_free =              9.559170876196561 AA.
  | Species        1: outer_partition_radius set to              9.559170876196561 AA .
  | The sparse table of interatomic distances needs          0.01 kbyte instead of         0.01 kbyte of memory.
  | Net number of integration points:    17918
  | of which are non-zero points    :    17918
  Available memory per node after initialize_grid_storage_p1 [GB]:     37.18
  Renormalizing the initial density to the exact electron count on the 3D integration grid.
  | Initial density: Formal number of electrons (from input files) :      14.0000000000
  | Integrated number of electrons on 3D grid     :      13.9999997842
  | Charge integration error                      :      -0.0000002158
  | Normalization factor for density and gradient :       1.0000000154
  Renormalizing the free-atom superposition density to the exact electron count on the 3D integration grid.
  | Formal number of electrons (from input files) :      14.0000000000
  | Integrated number of electrons on 3D grid     :      13.9999996174
  | Charge integration error                      :      -0.0000003826
  | Normalization factor for density and gradient :       1.0000000273
  Obtaining max. number of non-zero basis functions in each batch (get_n_compute_maxes).
  | Maximal number of non-zero basis functions:      108 in task     0
  | Maximal number of non-zero basis functions:      108 in task     1
  | Maximal number of non-zero basis functions:      108 in task     2
  | Maximal number of non-zero basis functions:      108 in task     3
  Selecting the method for density update.
  Loop over occupied states selected for charge density update.
  Available memory per node after get_n_compute_maxes_p1 [GB]:     37.18
  Initialize hartree_potential_storage
  Max. number of atoms included in rho_multipole:            1

  Evaluating partitioned Hartree potential by multipole expansion.
  | Original multipole sum: apparent total charge =   0.876700E-13
  | Sum of charges compensated after spline to logarithmic grids =   0.764752E-07
  | Analytical far-field extrapolation by fixed multipoles:
  | Hartree multipole sum: apparent total charge =   0.876596E-13
  Summing up the Hartree potential.
  Time summed over all CPUs for potential: real work        0.001 s, elapsed        0.002 s
  | RMS charge density error from multipole expansion :   0.650718E-16

  Allocating        0.016 MB for KS_eigenvector
  Available memory per node after allocate_matrices [GB]:     37.17
  Available memory per node after init_comm_sparse_local_matrix_scalapack [GB]:     37.17
  Integrating Hamiltonian matrix: batch-based integration.
  Time summed over all CPUs for integration: real work        0.053 s, elapsed        0.058 s
  Available memory per node after integrate hamiltonian matrix [GB]:     37.17
  Integrating overlap matrix.
  Time summed over all CPUs for integration: real work        0.020 s, elapsed        0.022 s
  Available memory per node after integrate ovlp matrix [GB]:     37.17
  Available memory per node after ASI_callbacks invoke [GB]:     37.17
  Deallocating overlap matrix.
  Available memory per node after save_overlap_scalapack [GB]:     37.17

  Updating Kohn-Sham eigenvalues and eigenvectors using ELSI and the ELPA eigensolver.
  Overlap matrix is not singular
  | Lowest and highest eigenvalues :  0.9813E+00,  0.1000E+01
  Finished singularity check of overlap matrix
  | Time :     0.071 s
  Starting ELPA eigensolver
  Finished Cholesky decomposition
  | Time :     0.005 s
  Finished transformation to standard eigenproblem
  | Time :     0.002 s
  Finished solving standard eigenproblem
  | Time :     0.002 s
  Finished back-transformation of eigenvectors
  | Time :     0.000 s
  Starting ELPA eigensolver
  Finished transformation to standard eigenproblem
  | Time :     0.000 s
  Finished solving standard eigenproblem
  | Time :     0.001 s
  Finished back-transformation of eigenvectors
  | Time :     0.000 s

  Obtaining occupation numbers and electronic chemical potential using ELSI.
  | Note that, for insulating systems, the printed 'chemical potential' value is not uniquely defined.
  | It can be anywhere in the energy gap, as long as it correctly separates occupied and unoccupied states.
  | In systems with a gap, the physically relevant chemical potential is the VBM or HOMO.

  | Chemical potential (Fermi level):    -4.61141483 eV
  Available memory per node after advance_KS_solution [GB]:     37.21
  Writing Kohn-Sham eigenvalues.

  Spin-up eigenvalues:

  State    Occupation    Eigenvalue [Ha]    Eigenvalue [eV]
      1       1.00000         -65.497111        -1782.26706
      2       1.00000          -5.094242         -138.62138
      3       1.00000          -3.509436          -95.49661
      4       1.00000          -3.509436          -95.49661
      5       1.00000          -3.509436          -95.49661
      6       1.00000          -0.418096          -11.37698
      7       0.66667          -0.169578           -4.61446
      8       0.66667          -0.169578           -4.61446
      9       0.66667          -0.169578           -4.61446
     10       0.00000           0.009190            0.25007

  Spin-down eigenvalues:

  State    Occupation    Eigenvalue [Ha]    Eigenvalue [eV]
      1       1.00000         -65.490936        -1782.09904
      2       1.00000          -5.086865         -138.42064
      3       1.00000          -3.500139          -95.24364
      4       1.00000          -3.500139          -95.24364
      5       1.00000          -3.500139          -95.24364
      6       1.00000          -0.363645           -9.89528
      7       0.00000          -0.120952           -3.29128
      8       0.00000          -0.120952           -3.29128
      9       0.00000          -0.120952           -3.29128
     10       0.00000           0.026301            0.71568

  Current spin moment of the entire structure :
  | N = N_up - N_down :    2.00
  | S                 :    1.00
  | J                 :    3.00

  Highest occupied state (VBM) at     -4.61446053 eV
  | Occupation number:      0.66666667
  | Spin channel:        1

  Lowest unoccupied state (CBM) at    -3.29127799 eV
  | Occupation number:      0.00000000
  | Spin channel:        2

  Overall HOMO-LUMO gap:      1.32318254 eV.
  This system has fractional occupation numbers. Thus, it is a degenerate system
  within the approximate finite broadening function (occupation_type)
  applied to determine the occupation numbers.
  This may not be harmful. However, for some systems (free atoms), a different, non-degenerate
  ground state might exist by using a smaller broadening (see keyword occupation_type).
  Calculating total energy contributions from superposition of free atom densities.

  Total energy components:
  | Sum of eigenvalues            :        -163.31877722 Ha       -4444.13004295 eV
  | XC energy correction          :         -19.64073441 Ha        -534.45157584 eV
  | XC potential correction       :          25.95369992 Ha         706.23610786 eV
  | Free-atom electrostatic energy:        -132.05600162 Ha       -3593.42663550 eV
  | Hartree energy correction     :          -0.11427425 Ha          -3.10956069 eV
  | Entropy correction            :          -0.00014173 Ha          -0.00385656 eV
  | ---------------------------
  | Total energy                  :        -289.17608757 Ha       -7868.88170713 eV
  | Total energy, T -> 0          :        -289.17622930 Ha       -7868.88556368 eV  <-- do not rely on this value for anything but (periodic) metals
  | Electronic free energy        :        -289.17637102 Ha       -7868.88942024 eV

  Derived energy quantities:
  | Kinetic energy                :         289.61174773 Ha        7880.73662309 eV
  | Electrostatic energy          :        -559.14710089 Ha      -15215.16675438 eV
  | Energy correction for multipole
  | error in Hartree potential    :          -0.00000000 Ha          -0.00000000 eV
  | Sum of eigenvalues per atom                           :       -4444.13004295 eV
  | Total energy (T->0) per atom                          :       -7868.88556368 eV  <-- do not rely on this value for anything but (periodic) metals
  | Electronic free energy per atom                       :       -7868.88942024 eV

  End scf initialization - timings             :  max(cpu_time)    wall_clock(cpu1)
  | Time for scf. initialization                :        0.431 s           0.491 s
  | Boundary condition initialization           :        0.002 s           0.002 s
  | Integration                                 :        0.020 s           0.020 s
  | Solution of K.-S. eqns.                     :        0.023 s           0.082 s
  | Grid partitioning                           :        0.006 s           0.006 s
  | Preloading free-atom quantities on grid     :        0.378 s           0.378 s
  | Free-atom superposition energy              :        0.003 s           0.003 s
  | Total energy evaluation                     :        0.000 s           0.000 s

  Partial memory accounting:
  | Current value for overall tracked memory usage:
  |   Minimum:        0.195 MB (on task 3)
  |   Maximum:        0.244 MB (on task 0)
  |   Average:        0.218 MB
  | Peak value for overall tracked memory usage:
  |   Minimum:        0.696 MB (on task 3 after allocating wave)
  |   Maximum:        0.745 MB (on task 0 after allocating wave)
  |   Average:        0.719 MB
  | Largest tracked array allocation so far:
  |   Minimum:        0.147 MB (H_times_psi on task 0)
  |   Maximum:        0.147 MB (H_times_psi on task 0)
  |   Average:        0.147 MB
  Note:  These values currently only include a subset of arrays which are explicitly tracked.
  The "true" memory usage will be greater.
------------------------------------------------------------
  Available memory after initialize_scf [GB]:     37.21
  Available memory after allocating mixing [GB]:     37.21
  Evaluating new KS density.
  Integration grid: deviation in total charge (<rho> - N_e) =   9.592327E-14
  | <rho_up-rho_dn> = N_up-N_dn =      2.0000; <|rho_up-rho_dn|> =      2.0002

  Time for density update prior                :  max(cpu_time)    wall_clock(cpu1)
  | self-consistency iterative process          :        0.005 s           0.005 s
  Available memory before start of SCF loop [GB]:     37.22

------------------------------------------------------------
          Begin self-consistency iteration #    1

  Date     :  20240408, Time     :  091311.496
------------------------------------------------------------
  Pulay mixing of updated and previous charge densities.
  Available memory per node after mixing [GB]:     37.22
  Renormalizing the density to the exact electron count on the 3D integration grid.
  | Formal number of electrons (from input files) :      14.0000000000
  | Integrated number of electrons on 3D grid     :      14.0000000000
  | Charge integration error                      :      -0.0000000000
  | Normalization factor for density and gradient :       1.0000000000

  Evaluating partitioned Hartree potential by multipole expansion.
  | Original multipole sum: apparent total charge =   0.659049E-13
  | Sum of charges compensated after spline to logarithmic grids =   0.851006E-07
  | Analytical far-field extrapolation by fixed multipoles:
  | Hartree multipole sum: apparent total charge =   0.659038E-13
  Summing up the Hartree potential.
  Time summed over all CPUs for potential: real work        0.001 s, elapsed        0.002 s
  | RMS charge density error from multipole expansion :   0.255860E-13

  Integrating Hamiltonian matrix: batch-based integration.
  Time summed over all CPUs for integration: real work        0.053 s, elapsed        0.057 s

  Updating Kohn-Sham eigenvalues and eigenvectors using ELSI and the ELPA eigensolver.
  Starting ELPA eigensolver
  Finished transformation to standard eigenproblem
  | Time :     0.000 s
  Finished solving standard eigenproblem
  | Time :     0.001 s
  Finished back-transformation of eigenvectors
  | Time :     0.000 s
  Starting ELPA eigensolver
  Finished transformation to standard eigenproblem
  | Time :     0.000 s
  Finished solving standard eigenproblem
  | Time :     0.001 s
  Finished back-transformation of eigenvectors
  | Time :     0.000 s

  Obtaining occupation numbers and electronic chemical potential using ELSI.
  | Note that, for insulating systems, the printed 'chemical potential' value is not uniquely defined.
  | It can be anywhere in the energy gap, as long as it correctly separates occupied and unoccupied states.
  | In systems with a gap, the physically relevant chemical potential is the VBM or HOMO.

  | Chemical potential (Fermi level):    -4.61140980 eV
  Writing Kohn-Sham eigenvalues.

  Spin-up eigenvalues:

  State    Occupation    Eigenvalue [Ha]    Eigenvalue [eV]
      1       1.00000         -65.497105        -1782.26692
      2       1.00000          -5.094241         -138.62134
      3       1.00000          -3.509433          -95.49654
      4       1.00000          -3.509433          -95.49654
      5       1.00000          -3.509433          -95.49654
      6       1.00000          -0.418096          -11.37697
      7       0.66667          -0.169578           -4.61446
      8       0.66667          -0.169578           -4.61446
      9       0.66667          -0.169578           -4.61446
     10       0.00000           0.009190            0.25007

  Spin-down eigenvalues:

  State    Occupation    Eigenvalue [Ha]    Eigenvalue [eV]
      1       1.00000         -65.490929        -1782.09885
      2       1.00000          -5.086863         -138.42060
      3       1.00000          -3.500138          -95.24359
      4       1.00000          -3.500138          -95.24359
      5       1.00000          -3.500138          -95.24359
      6       1.00000          -0.363646           -9.89532
      7       0.00000          -0.120953           -3.29130
      8       0.00000          -0.120953           -3.29130
      9       0.00000          -0.120953           -3.29130
     10       0.00000           0.026300            0.71567

  Current spin moment of the entire structure :
  | N = N_up - N_down :    2.00
  | S                 :    1.00
  | J                 :    3.00

  Highest occupied state (VBM) at     -4.61445550 eV
  | Occupation number:      0.66666667
  | Spin channel:        1

  Lowest unoccupied state (CBM) at    -3.29130487 eV
  | Occupation number:      0.00000000
  | Spin channel:        2

  Overall HOMO-LUMO gap:      1.32315063 eV.
  This system has fractional occupation numbers. Thus, it is a degenerate system
  within the approximate finite broadening function (occupation_type)
  applied to determine the occupation numbers.
  This may not be harmful. However, for some systems (free atoms), a different, non-degenerate
  ground state might exist by using a smaller broadening (see keyword occupation_type).

  Total energy components:
  | Sum of eigenvalues            :        -163.31874984 Ha       -4444.12929794 eV
  | XC energy correction          :         -19.64073789 Ha        -534.45167071 eV
  | XC potential correction       :          25.95370448 Ha         706.23623177 eV
  | Free-atom electrostatic energy:        -132.05600162 Ha       -3593.42663550 eV
  | Hartree energy correction     :          -0.11430272 Ha          -3.11033513 eV
  | Entropy correction            :          -0.00014173 Ha          -0.00385656 eV
  | ---------------------------
  | Total energy                  :        -289.17608759 Ha       -7868.88170751 eV
  | Total energy, T -> 0          :        -289.17622931 Ha       -7868.88556407 eV  <-- do not rely on this value for anything but (periodic) metals
  | Electronic free energy        :        -289.17637104 Ha       -7868.88942063 eV

  Derived energy quantities:
  | Kinetic energy                :         289.61181306 Ha        7880.73840094 eV
  | Electrostatic energy          :        -559.14716275 Ha      -15215.16843775 eV
  | Energy correction for multipole
  | error in Hartree potential    :          -0.00000000 Ha          -0.00000000 eV
  | Sum of eigenvalues per atom                           :       -4444.12929794 eV
  | Total energy (T->0) per atom                          :       -7868.88556407 eV  <-- do not rely on this value for anything but (periodic) metals
  | Electronic free energy per atom                       :       -7868.88942063 eV
  Evaluating new KS density.
  Integration grid: deviation in total charge (<rho> - N_e) =   1.350031E-13
  | <rho_up-rho_dn> = N_up-N_dn =      2.0000; <|rho_up-rho_dn|> =      2.0002

  Self-consistency convergence accuracy:
  | Change of charge/spin density :  0.1191E-03  0.1065E-02
  | Change of unmixed KS charge/spin density :  0.2298E+02  0.1518E+00
  | Change of sum of eigenvalues  :  0.7450E-03 eV
  | Change of total energy        : -0.3875E-06 eV


------------------------------------------------------------
  End self-consistency iteration #     1       :  max(cpu_time)    wall_clock(cpu1)
  | Time for this iteration                     :        0.025 s           0.025 s
  | Charge density update                       :        0.005 s           0.004 s
  | Density mixing                              :        0.000 s           0.000 s
  | Hartree multipole update                    :        0.001 s           0.001 s
  | Hartree multipole summation                 :        0.002 s           0.002 s
  | Integration                                 :        0.014 s           0.015 s
  | Solution of K.-S. eqns.                     :        0.003 s           0.002 s
  | Total energy evaluation                     :        0.000 s           0.000 s

  Partial memory accounting:
  | Current value for overall tracked memory usage:
  |   Minimum:        1.503 MB (on task 3)
  |   Maximum:        1.534 MB (on task 0)
  |   Average:        1.517 MB
  | Peak value for overall tracked memory usage:
  |   Minimum:        1.959 MB (on task 3 after allocating wave)
  |   Maximum:        1.990 MB (on task 0 after allocating wave)
  |   Average:        1.973 MB
  | Largest tracked array allocation so far:
  |   Minimum:        0.543 MB (previous_rho_diff on task 0)
  |   Maximum:        0.551 MB (previous_rho_diff on task 3)
  |   Average:        0.547 MB
  Note:  These values currently only include a subset of arrays which are explicitly tracked.
  The "true" memory usage will be greater.
------------------------------------------------------------

------------------------------------------------------------
          Begin self-consistency iteration #    2

  Date     :  20240408, Time     :  091311.521
------------------------------------------------------------
  Pulay mixing of updated and previous charge densities.
  Available memory per node after mixing [GB]:     37.24
  Renormalizing the density to the exact electron count on the 3D integration grid.
  | Formal number of electrons (from input files) :      14.0000000000
  | Integrated number of electrons on 3D grid     :      14.0000000000
  | Charge integration error                      :       0.0000000000
  | Normalization factor for density and gradient :       1.0000000000

  Evaluating partitioned Hartree potential by multipole expansion.
  | Original multipole sum: apparent total charge =   0.325494E-13
  | Sum of charges compensated after spline to logarithmic grids =   0.275663E-06
  | Analytical far-field extrapolation by fixed multipoles:
  | Hartree multipole sum: apparent total charge =   0.325546E-13
  Summing up the Hartree potential.
  Time summed over all CPUs for potential: real work        0.001 s, elapsed        0.001 s
  | RMS charge density error from multipole expansion :   0.880687E-12

  Integrating Hamiltonian matrix: batch-based integration.
  Time summed over all CPUs for integration: real work        0.052 s, elapsed        0.057 s

  Updating Kohn-Sham eigenvalues and eigenvectors using ELSI and the ELPA eigensolver.
  Starting ELPA eigensolver
  Finished transformation to standard eigenproblem
  | Time :     0.000 s
  Finished solving standard eigenproblem
  | Time :     0.001 s
  Finished back-transformation of eigenvectors
  | Time :     0.000 s
  Starting ELPA eigensolver
  Finished transformation to standard eigenproblem
  | Time :     0.000 s
  Finished solving standard eigenproblem
  | Time :     0.001 s
  Finished back-transformation of eigenvectors
  | Time :     0.000 s

  Obtaining occupation numbers and electronic chemical potential using ELSI.
  | Note that, for insulating systems, the printed 'chemical potential' value is not uniquely defined.
  | It can be anywhere in the energy gap, as long as it correctly separates occupied and unoccupied states.
  | In systems with a gap, the physically relevant chemical potential is the VBM or HOMO.

  | Chemical potential (Fermi level):    -4.61131917 eV
  Current spin moment of the entire structure :
  | N = N_up - N_down :    2.00
  | S                 :    1.00
  | J                 :    3.00

  Highest occupied state (VBM) at     -4.61436487 eV
  | Occupation number:      0.66666667
  | Spin channel:        1

  Lowest unoccupied state (CBM) at    -3.29183844 eV
  | Occupation number:      0.00000000
  | Spin channel:        2

  Overall HOMO-LUMO gap:      1.32252643 eV.
  This system has fractional occupation numbers. Thus, it is a degenerate system
  within the approximate finite broadening function (occupation_type)
  applied to determine the occupation numbers.
  This may not be harmful. However, for some systems (free atoms), a different, non-degenerate
  ground state might exist by using a smaller broadening (see keyword occupation_type).

  Checking to see if s.c.f. parameters should be adjusted.
  Adjusted the Pulay mixing parameter (charge_mix_param) for an expected low-gap system. New value:   0.020000 .
  Adjusted the occupation broadening width for an expected low-gap system. New value:      0.05000000 eV.

  Total energy components:
  | Sum of eigenvalues            :        -163.31824244 Ha       -4444.11549097 eV
  | XC energy correction          :         -19.64080300 Ha        -534.45344235 eV
  | XC potential correction       :          25.95378947 Ha         706.23854450 eV
  | Free-atom electrostatic energy:        -132.05600162 Ha       -3593.42663550 eV
  | Hartree energy correction     :          -0.11483013 Ha          -3.12468692 eV
  | Entropy correction            :          -0.00077463 Ha          -0.02107875 eV
  | ---------------------------
  | Total energy                  :        -289.17608772 Ha       -7868.88171125 eV
  | Total energy, T -> 0          :        -289.17686235 Ha       -7868.90279000 eV  <-- do not rely on this value for anything but (periodic) metals
  | Electronic free energy        :        -289.17763698 Ha       -7868.92386875 eV

  Derived energy quantities:
  | Kinetic energy                :         289.61304261 Ha        7880.77185875 eV
  | Electrostatic energy          :        -559.14832733 Ha      -15215.20012764 eV
  | Energy correction for multipole
  | error in Hartree potential    :           0.00000000 Ha           0.00000000 eV
  | Sum of eigenvalues per atom                           :       -4444.11549097 eV
  | Total energy (T->0) per atom                          :       -7868.90279000 eV  <-- do not rely on this value for anything but (periodic) metals
  | Electronic free energy per atom                       :       -7868.92386875 eV
  Evaluating new KS density.
  Integration grid: deviation in total charge (<rho> - N_e) =   5.684342E-14
  | <rho_up-rho_dn> = N_up-N_dn =      2.0000; <|rho_up-rho_dn|> =      2.0002

  Self-consistency convergence accuracy:
  | Change of charge/spin density :  0.1109E-03  0.1014E-02
  | Change of unmixed KS charge/spin density :  0.2674E-05  0.3734E-05
  | Change of sum of eigenvalues  :  0.1381E-01 eV
  | Change of total energy        : -0.3732E-05 eV


------------------------------------------------------------
  End self-consistency iteration #     2       :  max(cpu_time)    wall_clock(cpu1)
  | Time for this iteration                     :        0.025 s           0.025 s
  | Charge density update                       :        0.005 s           0.005 s
  | Density mixing                              :        0.000 s           0.001 s
  | Hartree multipole update                    :        0.001 s           0.001 s
  | Hartree multipole summation                 :        0.002 s           0.001 s
  | Integration                                 :        0.014 s           0.015 s
  | Solution of K.-S. eqns.                     :        0.003 s           0.002 s
  | Total energy evaluation                     :        0.000 s           0.000 s

  Partial memory accounting:
  | Current value for overall tracked memory usage:
  |   Minimum:        1.503 MB (on task 3)
  |   Maximum:        1.535 MB (on task 0)
  |   Average:        1.518 MB
  | Peak value for overall tracked memory usage:
  |   Minimum:        1.959 MB (on task 3 after allocating wave)
  |   Maximum:        1.991 MB (on task 0 after allocating wave)
  |   Average:        1.973 MB
  | Largest tracked array allocation so far:
  |   Minimum:        0.543 MB (previous_rho_diff on task 0)
  |   Maximum:        0.551 MB (previous_rho_diff on task 3)
  |   Average:        0.547 MB
  Note:  These values currently only include a subset of arrays which are explicitly tracked.
  The "true" memory usage will be greater.
------------------------------------------------------------

------------------------------------------------------------
          Begin self-consistency iteration #    3

  Date     :  20240408, Time     :  091311.546
------------------------------------------------------------
  Pulay mixing of updated and previous charge densities.
  Available memory per node after mixing [GB]:     37.28
  Renormalizing the density to the exact electron count on the 3D integration grid.
  | Formal number of electrons (from input files) :      14.0000000000
  | Integrated number of electrons on 3D grid     :      14.0000000000
  | Charge integration error                      :       0.0000000000
  | Normalization factor for density and gradient :       1.0000000000

  Evaluating partitioned Hartree potential by multipole expansion.
  | Original multipole sum: apparent total charge =   0.118359E-13
  | Sum of charges compensated after spline to logarithmic grids =   0.273050E-06
  | Analytical far-field extrapolation by fixed multipoles:
  | Hartree multipole sum: apparent total charge =   0.118564E-13
  Summing up the Hartree potential.
  Time summed over all CPUs for potential: real work        0.001 s, elapsed        0.001 s
  | RMS charge density error from multipole expansion :   0.187643E-10

  Integrating Hamiltonian matrix: batch-based integration.
  Time summed over all CPUs for integration: real work        0.052 s, elapsed        0.057 s

  Updating Kohn-Sham eigenvalues and eigenvectors using ELSI and the ELPA eigensolver.
  Starting ELPA eigensolver
  Finished transformation to standard eigenproblem
  | Time :     0.001 s
  Finished solving standard eigenproblem
  | Time :     0.001 s
  Finished back-transformation of eigenvectors
  | Time :     0.000 s
  Starting ELPA eigensolver
  Finished transformation to standard eigenproblem
  | Time :     0.000 s
  Finished solving standard eigenproblem
  | Time :     0.001 s
  Finished back-transformation of eigenvectors
  | Time :     0.000 s

  Obtaining occupation numbers and electronic chemical potential using ELSI.
  | Note that, for insulating systems, the printed 'chemical potential' value is not uniquely defined.
  | It can be anywhere in the energy gap, as long as it correctly separates occupied and unoccupied states.
  | In systems with a gap, the physically relevant chemical potential is the VBM or HOMO.

  | Chemical potential (Fermi level):    -4.59925028 eV
  Current spin moment of the entire structure :
  | N = N_up - N_down :    2.00
  | S                 :    1.00
  | J                 :    3.00

  Highest occupied state (VBM) at     -4.61447879 eV
  | Occupation number:      0.66666667
  | Spin channel:        1

  Lowest unoccupied state (CBM) at    -3.29195446 eV
  | Occupation number:      0.00000000
  | Spin channel:        2

  Overall HOMO-LUMO gap:      1.32252433 eV.
  This system has fractional occupation numbers. Thus, it is a degenerate system
  within the approximate finite broadening function (occupation_type)
  applied to determine the occupation numbers.
  This may not be harmful. However, for some systems (free atoms), a different, non-degenerate
  ground state might exist by using a smaller broadening (see keyword occupation_type).

  Total energy components:
  | Sum of eigenvalues            :        -163.31864980 Ha       -4444.12657584 eV
  | XC energy correction          :         -19.64075603 Ha        -534.45216423 eV
  | XC potential correction       :          25.95372722 Ha         706.23685055 eV
  | Free-atom electrostatic energy:        -132.05600162 Ha       -3593.42663550 eV
  | Hartree energy correction     :          -0.11440749 Ha          -3.11318623 eV
  | Entropy correction            :          -0.00070863 Ha          -0.01928279 eV
  | ---------------------------
  | Total energy                  :        -289.17608772 Ha       -7868.88171125 eV
  | Total energy, T -> 0          :        -289.17679635 Ha       -7868.90099404 eV  <-- do not rely on this value for anything but (periodic) metals
  | Electronic free energy        :        -289.17750498 Ha       -7868.92027683 eV

  Derived energy quantities:
  | Kinetic energy                :         289.61233210 Ha        7880.75252483 eV
  | Electrostatic energy          :        -559.14766380 Ha      -15215.18207184 eV
  | Energy correction for multipole
  | error in Hartree potential    :          -0.00000000 Ha          -0.00000000 eV
  | Sum of eigenvalues per atom                           :       -4444.12657584 eV
  | Total energy (T->0) per atom                          :       -7868.90099404 eV  <-- do not rely on this value for anything but (periodic) metals
  | Electronic free energy per atom                       :       -7868.92027683 eV
  Evaluating new KS density.
  Integration grid: deviation in total charge (<rho> - N_e) =   2.664535E-14
  | <rho_up-rho_dn> = N_up-N_dn =      2.0000; <|rho_up-rho_dn|> =      2.0002

  Self-consistency convergence accuracy:
  | Change of charge/spin density :  0.5343E-04  0.6134E-04
  | Change of unmixed KS charge/spin density :  0.5074E-04  0.7320E-04
  | Change of sum of eigenvalues  : -0.1108E-01 eV
  | Change of total energy        : -0.2336E-08 eV


------------------------------------------------------------
  End self-consistency iteration #     3       :  max(cpu_time)    wall_clock(cpu1)
  | Time for this iteration                     :        0.025 s           0.025 s
  | Charge density update                       :        0.005 s           0.005 s
  | Density mixing                              :        0.000 s           0.001 s
  | Hartree multipole update                    :        0.001 s           0.000 s
  | Hartree multipole summation                 :        0.002 s           0.002 s
  | Integration                                 :        0.014 s           0.014 s
  | Solution of K.-S. eqns.                     :        0.003 s           0.003 s
  | Total energy evaluation                     :        0.000 s           0.000 s

  Partial memory accounting:
  | Current value for overall tracked memory usage:
  |   Minimum:        1.504 MB (on task 3)
  |   Maximum:        1.535 MB (on task 0)
  |   Average:        1.518 MB
  | Peak value for overall tracked memory usage:
  |   Minimum:        1.959 MB (on task 3 after allocating wave)
  |   Maximum:        1.991 MB (on task 0 after allocating wave)
  |   Average:        1.973 MB
  | Largest tracked array allocation so far:
  |   Minimum:        0.543 MB (previous_rho_diff on task 0)
  |   Maximum:        0.551 MB (previous_rho_diff on task 3)
  |   Average:        0.547 MB
  Note:  These values currently only include a subset of arrays which are explicitly tracked.
  The "true" memory usage will be greater.
------------------------------------------------------------

------------------------------------------------------------
          Begin self-consistency iteration #    4

  Date     :  20240408, Time     :  091311.571
------------------------------------------------------------
  Pulay mixing of updated and previous charge densities.
  Available memory per node after mixing [GB]:     37.31
  Renormalizing the density to the exact electron count on the 3D integration grid.
  | Formal number of electrons (from input files) :      14.0000000000
  | Integrated number of electrons on 3D grid     :      14.0000000000
  | Charge integration error                      :       0.0000000000
  | Normalization factor for density and gradient :       1.0000000000

  Evaluating partitioned Hartree potential by multipole expansion.
  | Original multipole sum: apparent total charge =   0.249045E-13
  | Sum of charges compensated after spline to logarithmic grids =   0.271691E-06
  | Analytical far-field extrapolation by fixed multipoles:
  | Hartree multipole sum: apparent total charge =   0.249188E-13
  Summing up the Hartree potential.
  Time summed over all CPUs for potential: real work        0.001 s, elapsed        0.001 s
  | RMS charge density error from multipole expansion :   0.102602E-09

  Integrating Hamiltonian matrix: batch-based integration.
  Time summed over all CPUs for integration: real work        0.058 s, elapsed        0.081 s => Consider using load balancing!

  Updating Kohn-Sham eigenvalues and eigenvectors using ELSI and the ELPA eigensolver.
  Starting ELPA eigensolver
  Finished transformation to standard eigenproblem
  | Time :     0.000 s
  Finished solving standard eigenproblem
  | Time :     0.001 s
  Finished back-transformation of eigenvectors
  | Time :     0.001 s
  Starting ELPA eigensolver
  Finished transformation to standard eigenproblem
  | Time :     0.000 s
  Finished solving standard eigenproblem
  | Time :     0.001 s
  Finished back-transformation of eigenvectors
  | Time :     0.000 s

  Obtaining occupation numbers and electronic chemical potential using ELSI.
  | Note that, for insulating systems, the printed 'chemical potential' value is not uniquely defined.
  | It can be anywhere in the energy gap, as long as it correctly separates occupied and unoccupied states.
  | In systems with a gap, the physically relevant chemical potential is the VBM or HOMO.

  | Chemical potential (Fermi level):    -4.59923129 eV
  Current spin moment of the entire structure :
  | N = N_up - N_down :    2.00
  | S                 :    1.00
  | J                 :    3.00

  Highest occupied state (VBM) at     -4.61445980 eV
  | Occupation number:      0.66666666
  | Spin channel:        1

  Lowest unoccupied state (CBM) at    -3.29193482 eV
  | Occupation number:      0.00000000
  | Spin channel:        2

  Overall HOMO-LUMO gap:      1.32252498 eV.
  This system has fractional occupation numbers. Thus, it is a degenerate system
  within the approximate finite broadening function (occupation_type)
  applied to determine the occupation numbers.
  This may not be harmful. However, for some systems (free atoms), a different, non-degenerate
  ground state might exist by using a smaller broadening (see keyword occupation_type).

  Total energy components:
  | Sum of eigenvalues            :        -163.31862376 Ha       -4444.12586709 eV
  | XC energy correction          :         -19.64075750 Ha        -534.45220414 eV
  | XC potential correction       :          25.95372916 Ha         706.23690341 eV
  | Free-atom electrostatic energy:        -132.05600162 Ha       -3593.42663550 eV
  | Hartree energy correction     :          -0.11443401 Ha          -3.11390794 eV
  | Entropy correction            :          -0.00070863 Ha          -0.01928279 eV
  | ---------------------------
  | Total energy                  :        -289.17608772 Ha       -7868.88171125 eV
  | Total energy, T -> 0          :        -289.17679635 Ha       -7868.90099404 eV  <-- do not rely on this value for anything but (periodic) metals
  | Electronic free energy        :        -289.17750498 Ha       -7868.92027683 eV

  Derived energy quantities:
  | Kinetic energy                :         289.61234125 Ha        7880.75277360 eV
  | Electrostatic energy          :        -559.14767147 Ha      -15215.18228071 eV
  | Energy correction for multipole
  | error in Hartree potential    :          -0.00000000 Ha          -0.00000000 eV
  | Sum of eigenvalues per atom                           :       -4444.12586709 eV
  | Total energy (T->0) per atom                          :       -7868.90099404 eV  <-- do not rely on this value for anything but (periodic) metals
  | Electronic free energy per atom                       :       -7868.92027683 eV
  Evaluating new KS density.
  Integration grid: deviation in total charge (<rho> - N_e) =   9.414691E-14
  | <rho_up-rho_dn> = N_up-N_dn =      2.0000; <|rho_up-rho_dn|> =      2.0002

  Self-consistency convergence accuracy:
  | Change of charge/spin density :  0.1041E-04  0.1580E-04
  | Change of unmixed KS charge/spin density :  0.2275E-04  0.2059E-05
  | Change of sum of eigenvalues  :  0.7088E-03 eV
  | Change of total energy        :  0.1810E-08 eV


------------------------------------------------------------
  End self-consistency iteration #     4       :  max(cpu_time)    wall_clock(cpu1)
  | Time for this iteration                     :        0.031 s           0.031 s
  | Charge density update                       :        0.005 s           0.005 s
  | Density mixing                              :        0.000 s           0.000 s
  | Hartree multipole update                    :        0.001 s           0.001 s
  | Hartree multipole summation                 :        0.002 s           0.002 s
  | Integration                                 :        0.020 s           0.020 s
  | Solution of K.-S. eqns.                     :        0.003 s           0.003 s
  | Total energy evaluation                     :        0.000 s           0.000 s

  Partial memory accounting:
  | Current value for overall tracked memory usage:
  |   Minimum:        1.504 MB (on task 3)
  |   Maximum:        1.535 MB (on task 0)
  |   Average:        1.518 MB
  | Peak value for overall tracked memory usage:
  |   Minimum:        1.959 MB (on task 3 after allocating wave)
  |   Maximum:        1.991 MB (on task 0 after allocating wave)
  |   Average:        1.973 MB
  | Largest tracked array allocation so far:
  |   Minimum:        0.543 MB (previous_rho_diff on task 0)
  |   Maximum:        0.551 MB (previous_rho_diff on task 3)
  |   Average:        0.547 MB
  Note:  These values currently only include a subset of arrays which are explicitly tracked.
  The "true" memory usage will be greater.
------------------------------------------------------------

------------------------------------------------------------
          Begin self-consistency iteration #    5

  Date     :  20240408, Time     :  091311.602
------------------------------------------------------------
  Pulay mixing of updated and previous charge densities.
  Available memory per node after mixing [GB]:     37.32
  Renormalizing the density to the exact electron count on the 3D integration grid.
  | Formal number of electrons (from input files) :      14.0000000000
  | Integrated number of electrons on 3D grid     :      14.0000000000
  | Charge integration error                      :       0.0000000000
  | Normalization factor for density and gradient :       1.0000000000

  Evaluating partitioned Hartree potential by multipole expansion.
  | Original multipole sum: apparent total charge =   0.557813E-13
  | Sum of charges compensated after spline to logarithmic grids =   0.271448E-06
  | Analytical far-field extrapolation by fixed multipoles:
  | Hartree multipole sum: apparent total charge =   0.557520E-13
  Summing up the Hartree potential.
  Time summed over all CPUs for potential: real work        0.001 s, elapsed        0.001 s
  | RMS charge density error from multipole expansion :   0.159923E-09

  Integrating Hamiltonian matrix: batch-based integration.
  Time summed over all CPUs for integration: real work        0.052 s, elapsed        0.057 s

  Updating Kohn-Sham eigenvalues and eigenvectors using ELSI and the ELPA eigensolver.
  Starting ELPA eigensolver
  Finished transformation to standard eigenproblem
  | Time :     0.000 s
  Finished solving standard eigenproblem
  | Time :     0.001 s
  Finished back-transformation of eigenvectors
  | Time :     0.000 s
  Starting ELPA eigensolver
  Finished transformation to standard eigenproblem
  | Time :     0.001 s
  Finished solving standard eigenproblem
  | Time :     0.001 s
  Finished back-transformation of eigenvectors
  | Time :     0.000 s

  Obtaining occupation numbers and electronic chemical potential using ELSI.
  | Note that, for insulating systems, the printed 'chemical potential' value is not uniquely defined.
  | It can be anywhere in the energy gap, as long as it correctly separates occupied and unoccupied states.
  | In systems with a gap, the physically relevant chemical potential is the VBM or HOMO.

  | Chemical potential (Fermi level):    -4.59920455 eV
  Current spin moment of the entire structure :
  | N = N_up - N_down :    2.00
  | S                 :    1.00
  | J                 :    3.00

  Highest occupied state (VBM) at     -4.61443306 eV
  | Occupation number:      0.66666665
  | Spin channel:        1

  Lowest unoccupied state (CBM) at    -3.29190703 eV
  | Occupation number:      0.00000000
  | Spin channel:        2

  Overall HOMO-LUMO gap:      1.32252603 eV.
  This system has fractional occupation numbers. Thus, it is a degenerate system
  within the approximate finite broadening function (occupation_type)
  applied to determine the occupation numbers.
  This may not be harmful. However, for some systems (free atoms), a different, non-degenerate
  ground state might exist by using a smaller broadening (see keyword occupation_type).

  Total energy components:
  | Sum of eigenvalues            :        -163.31854526 Ha       -4444.12373117 eV
  | XC energy correction          :         -19.64076590 Ha        -534.45243289 eV
  | XC potential correction       :          25.95374030 Ha         706.23720661 eV
  | Free-atom electrostatic energy:        -132.05600162 Ha       -3593.42663550 eV
  | Hartree energy correction     :          -0.11451524 Ha          -3.11611829 eV
  | Entropy correction            :          -0.00070863 Ha          -0.01928279 eV
  | ---------------------------
  | Total energy                  :        -289.17608772 Ha       -7868.88171124 eV
  | Total energy, T -> 0          :        -289.17679635 Ha       -7868.90099403 eV  <-- do not rely on this value for anything but (periodic) metals
  | Electronic free energy        :        -289.17750498 Ha       -7868.92027682 eV

  Derived energy quantities:
  | Kinetic energy                :         289.61246302 Ha        7880.75608721 eV
  | Electrostatic energy          :        -559.14778484 Ha      -15215.18536556 eV
  | Energy correction for multipole
  | error in Hartree potential    :           0.00000000 Ha           0.00000000 eV
  | Sum of eigenvalues per atom                           :       -4444.12373117 eV
  | Total energy (T->0) per atom                          :       -7868.90099403 eV  <-- do not rely on this value for anything but (periodic) metals
  | Electronic free energy per atom                       :       -7868.92027682 eV
  Evaluating new KS density.
  Integration grid: deviation in total charge (<rho> - N_e) =  -2.664535E-14
  | <rho_up-rho_dn> = N_up-N_dn =      2.0000; <|rho_up-rho_dn|> =      2.0002

  Self-consistency convergence accuracy:
  | Change of charge/spin density :  0.1019E-04  0.2039E-05
  | Change of unmixed KS charge/spin density :  0.6817E-06  0.9744E-06
  | Change of sum of eigenvalues  :  0.2136E-02 eV
  | Change of total energy        :  0.3089E-08 eV


------------------------------------------------------------
  End self-consistency iteration #     5       :  max(cpu_time)    wall_clock(cpu1)
  | Time for this iteration                     :        0.025 s           0.024 s
  | Charge density update                       :        0.004 s           0.004 s
  | Density mixing                              :        0.000 s           0.000 s
  | Hartree multipole update                    :        0.001 s           0.001 s
  | Hartree multipole summation                 :        0.002 s           0.002 s
  | Integration                                 :        0.014 s           0.014 s
  | Solution of K.-S. eqns.                     :        0.003 s           0.003 s
  | Total energy evaluation                     :        0.000 s           0.000 s

  Partial memory accounting:
  | Current value for overall tracked memory usage:
  |   Minimum:        1.504 MB (on task 3)
  |   Maximum:        1.535 MB (on task 0)
  |   Average:        1.518 MB
  | Peak value for overall tracked memory usage:
  |   Minimum:        1.959 MB (on task 3 after allocating wave)
  |   Maximum:        1.991 MB (on task 0 after allocating wave)
  |   Average:        1.973 MB
  | Largest tracked array allocation so far:
  |   Minimum:        0.543 MB (previous_rho_diff on task 0)
  |   Maximum:        0.551 MB (previous_rho_diff on task 3)
  |   Average:        0.547 MB
  Note:  These values currently only include a subset of arrays which are explicitly tracked.
  The "true" memory usage will be greater.
------------------------------------------------------------

------------------------------------------------------------
          Begin self-consistency iteration #    6

  Date     :  20240408, Time     :  091311.627
------------------------------------------------------------
  Pulay mixing of updated and previous charge densities.
  Available memory per node after mixing [GB]:     37.32
  Renormalizing the density to the exact electron count on the 3D integration grid.
  | Formal number of electrons (from input files) :      14.0000000000
  | Integrated number of electrons on 3D grid     :      14.0000000000
  | Charge integration error                      :      -0.0000000000
  | Normalization factor for density and gradient :       1.0000000000

  Evaluating partitioned Hartree potential by multipole expansion.
  | Original multipole sum: apparent total charge =   0.314783E-13
  | Sum of charges compensated after spline to logarithmic grids =   0.271426E-06
  | Analytical far-field extrapolation by fixed multipoles:
  | Hartree multipole sum: apparent total charge =   0.314562E-13
  Summing up the Hartree potential.
  Time summed over all CPUs for potential: real work        0.001 s, elapsed        0.001 s
  | RMS charge density error from multipole expansion :   0.276799E-09

  Integrating Hamiltonian matrix: batch-based integration.
  Time summed over all CPUs for integration: real work        0.056 s, elapsed        0.071 s

  Updating Kohn-Sham eigenvalues and eigenvectors using ELSI and the ELPA eigensolver.
  Starting ELPA eigensolver
  Finished transformation to standard eigenproblem
  | Time :     0.000 s
  Finished solving standard eigenproblem
  | Time :     0.001 s
  Finished back-transformation of eigenvectors
  | Time :     0.000 s
  Starting ELPA eigensolver
  Finished transformation to standard eigenproblem
  | Time :     0.000 s
  Finished solving standard eigenproblem
  | Time :     0.001 s
  Finished back-transformation of eigenvectors
  | Time :     0.000 s

  Obtaining occupation numbers and electronic chemical potential using ELSI.
  | Note that, for insulating systems, the printed 'chemical potential' value is not uniquely defined.
  | It can be anywhere in the energy gap, as long as it correctly separates occupied and unoccupied states.
  | In systems with a gap, the physically relevant chemical potential is the VBM or HOMO.

  | Chemical potential (Fermi level):    -4.59921879 eV
  Current spin moment of the entire structure :
  | N = N_up - N_down :    2.00
  | S                 :    1.00
  | J                 :    3.00

  Highest occupied state (VBM) at     -4.61444730 eV
  | Occupation number:      0.66666666
  | Spin channel:        1

  Lowest unoccupied state (CBM) at    -3.29192130 eV
  | Occupation number:      0.00000000
  | Spin channel:        2

  Overall HOMO-LUMO gap:      1.32252599 eV.
  This system has fractional occupation numbers. Thus, it is a degenerate system
  within the approximate finite broadening function (occupation_type)
  applied to determine the occupation numbers.
  This may not be harmful. However, for some systems (free atoms), a different, non-degenerate
  ground state might exist by using a smaller broadening (see keyword occupation_type).

  Total energy components:
  | Sum of eigenvalues            :        -163.31856190 Ha       -4444.12418386 eV
  | XC energy correction          :         -19.64076474 Ha        -534.45240110 eV
  | XC potential correction       :          25.95373877 Ha         706.23716480 eV
  | Free-atom electrostatic energy:        -132.05600162 Ha       -3593.42663550 eV
  | Hartree energy correction     :          -0.11449824 Ha          -3.11565559 eV
  | Entropy correction            :          -0.00070863 Ha          -0.01928279 eV
  | ---------------------------
  | Total energy                  :        -289.17608772 Ha       -7868.88171124 eV
  | Total energy, T -> 0          :        -289.17679635 Ha       -7868.90099403 eV  <-- do not rely on this value for anything but (periodic) metals
  | Electronic free energy        :        -289.17750498 Ha       -7868.92027682 eV

  Derived energy quantities:
  | Kinetic energy                :         289.61245803 Ha        7880.75595143 eV
  | Electrostatic energy          :        -559.14778102 Ha      -15215.18526158 eV
  | Energy correction for multipole
  | error in Hartree potential    :          -0.00000000 Ha          -0.00000000 eV
  | Sum of eigenvalues per atom                           :       -4444.12418386 eV
  | Total energy (T->0) per atom                          :       -7868.90099403 eV  <-- do not rely on this value for anything but (periodic) metals
  | Electronic free energy per atom                       :       -7868.92027682 eV

  Self-consistency convergence accuracy:
  | Change of charge/spin density :  0.8197E-06  0.5563E-06
  | Change of unmixed KS charge/spin density :  0.3969E-05  0.3740E-06
  | Change of sum of eigenvalues  : -0.4527E-03 eV
  | Change of total energy        : -0.1516E-09 eV

  Writing Kohn-Sham eigenvalues.

  Spin-up eigenvalues:

  State    Occupation    Eigenvalue [Ha]    Eigenvalue [eV]
      1       1.00000         -65.497061        -1782.26571
      2       1.00000          -5.094230         -138.62105
      3       1.00000          -3.509407          -95.49583
      4       1.00000          -3.509407          -95.49583
      5       1.00000          -3.509407          -95.49583
      6       1.00000          -0.418094          -11.37692
      7       0.66667          -0.169578           -4.61445
      8       0.66667          -0.169578           -4.61445
      9       0.66667          -0.169578           -4.61445
     10       0.00000           0.009185            0.24993

  Spin-down eigenvalues:

  State    Occupation    Eigenvalue [Ha]    Eigenvalue [eV]
      1       1.00000         -65.490855        -1782.09685
      2       1.00000          -5.086856         -138.42039
      3       1.00000          -3.500135          -95.24353
      4       1.00000          -3.500135          -95.24353
      5       1.00000          -3.500135          -95.24353
      6       1.00000          -0.363683           -9.89630
      7       0.00000          -0.120976           -3.29192
      8       0.00000          -0.120976           -3.29192
      9       0.00000          -0.120976           -3.29192
     10       0.00000           0.026290            0.71540

  Current spin moment of the entire structure :
  | N = N_up - N_down :    2.00
  | S                 :    1.00
  | J                 :    3.00

  Highest occupied state (VBM) at     -4.61444730 eV
  | Occupation number:      0.66666666
  | Spin channel:        1

  Lowest unoccupied state (CBM) at    -3.29192130 eV
  | Occupation number:      0.00000000
  | Spin channel:        2

  Overall HOMO-LUMO gap:      1.32252599 eV.
  This system has fractional occupation numbers. Thus, it is a degenerate system
  within the approximate finite broadening function (occupation_type)
  applied to determine the occupation numbers.
  This may not be harmful. However, for some systems (free atoms), a different, non-degenerate
  ground state might exist by using a smaller broadening (see keyword occupation_type).

  | Chemical Potential                          :    -4.59921879 eV
  | Note that, for insulating systems, the printed 'chemical potential' value is not uniquely defined.
  | It can be anywhere in the energy gap, as long as it correctly separates occupied and unoccupied states.
  | In systems with a gap, the physically relevant chemical potential is the VBM or HOMO.

  Self-consistency cycle converged.


------------------------------------------------------------
  End self-consistency iteration #     6       :  max(cpu_time)    wall_clock(cpu1)
  | Time for this iteration                     :        0.024 s           0.024 s
  | Charge density update                       :        0.000 s           0.000 s
  | Density mixing                              :        0.001 s           0.000 s
  | Hartree multipole update                    :        0.001 s           0.001 s
  | Hartree multipole summation                 :        0.002 s           0.002 s
  | Integration                                 :        0.018 s           0.017 s
  | Solution of K.-S. eqns.                     :        0.003 s           0.003 s
  | Total energy evaluation                     :        0.000 s           0.001 s

  Partial memory accounting:
  | Current value for overall tracked memory usage:
  |   Minimum:        1.504 MB (on task 3)
  |   Maximum:        1.535 MB (on task 0)
  |   Average:        1.518 MB
  | Peak value for overall tracked memory usage:
  |   Minimum:        1.959 MB (on task 3 after allocating wave)
  |   Maximum:        1.991 MB (on task 0 after allocating wave)
  |   Average:        1.973 MB
  | Largest tracked array allocation so far:
  |   Minimum:        0.543 MB (previous_rho_diff on task 0)
  |   Maximum:        0.551 MB (previous_rho_diff on task 3)
  |   Average:        0.547 MB
  Note:  These values currently only include a subset of arrays which are explicitly tracked.
  The "true" memory usage will be greater.
------------------------------------------------------------

  Energy and forces in a compact form:
  | Total energy uncorrected      :         -0.786888171124345E+04 eV
  | Total energy corrected        :         -0.786890099403371E+04 eV  <-- do not rely on this value for anything but (periodic) metals
  | Electronic free energy        :         -0.786892027682397E+04 eV

  ------------------------------------ 
  Start decomposition of the XC Energy 
  ------------------------------------ 
  X and C from original XC functional choice 
  Hartree-Fock Energy :          0.000000000 Ha              0.000000000 eV
  X Energy            :        -18.603434623 Ha           -506.225212539 eV
  C Energy            :         -1.037330113 Ha            -28.227188564 eV
  XC Energy w/o HF    :        -19.640764736 Ha           -534.452401103 eV
  Total XC Energy     :        -19.640764736 Ha           -534.452401103 eV
  ------------------------------------ 
  LDA X and C from self-consistent density 
  X Energy LDA        :        -18.603434623 Ha           -506.225212539 eV
  C Energy LDA        :         -1.037330113 Ha            -28.227188564 eV
  ------------------------------------ 
  End decomposition of the XC Energy 
  ------------------------------------ 

------------------------------------------------------------

------------------------------------------------------------------------------
  Final output of selected total energy values:

  The following output summarizes some interesting total energy values
  at the end of a run (AFTER all relaxation, molecular dynamics, etc.).

  | Total energy of the DFT / Hartree-Fock s.c.f. calculation      :          -7868.881711243 eV
  | Final zero-broadening corrected energy (caution - metals only) :          -7868.900994034 eV
  | For reference only, the value of 1 Hartree used in FHI-aims is :             27.211384500 eV

  Before relying on these values, please be sure to understand exactly which
  total energy value is referred to by a given number. Different objects may
  all carry the same name 'total energy'. Definitions:

  Total energy of the DFT / Hartree-Fock s.c.f. calculation:
  | Note that this energy does not include ANY quantities calculated after the
  | s.c.f. cycle, in particular not ANY RPA, MP2, etc. many-body perturbation terms.

  Final zero-broadening corrected energy:
  | For metallic systems only, a broadening of the occupation numbers at the Fermi
  | level can be extrapolated back to zero broadening by an electron-gas inspired
  | formula. For all systems that are not real metals, this value can be
  | meaningless and should be avoided.

------------------------------------------------------------------------------
  Methods described in the following list of references were used in this FHI-aims run.
  If you publish the results, please make sure to cite these reference if they apply.
  FHI-aims is an academic code, and for our developers (often, Ph.D. students
  and postdocs), scientific credit in the community is essential.
  Thank you for helping us!

  For any use of FHI-aims, please cite:

    Volker Blum, Ralf Gehrke, Felix Hanke, Paula Havu, Ville Havu,
    Xinguo Ren, Karsten Reuter, and Matthias Scheffler
    'Ab initio molecular simulations with numeric atom-centered orbitals'
    Computer Physics Communications 180, 2175-2196 (2009)
    http://doi.org/10.1016/j.cpc.2009.06.022


  The ELSI infrastructure was used in your run to solve the Kohn-Sham electronic structure.
  Please check out http://elsi-interchange.org to learn more.
  If scalability is important for your project, please acknowledge ELSI by citing:

    V. W-z. Yu, F. Corsetti, A. Garcia, W. P. Huhn, M. Jacquelin, W. Jia,
    B. Lange, L. Lin, J. Lu, W. Mi, A. Seifitokaldani, A. Vazquez-Mayagoitia,
    C. Yang, H. Yang, and V. Blum
    'ELSI: A unified software interface for Kohn-Sham electronic structure solvers'
    Computer Physics Communications 222, 267-285 (2018).
    http://doi.org/10.1016/j.cpc.2017.09.007


  For the real-space grid partitioning and parallelization used in this calculation, please cite:

    Ville Havu, Volker Blum, Paula Havu, and Matthias Scheffler,
    'Efficient O(N) integration for all-electron electronic structure calculation'
    'using numerically tabulated basis functions'
    Journal of Computational Physics 228, 8367-8379 (2009).
    http://doi.org/10.1016/j.jcp.2009.08.008

  Of course, there are many other important community references, e.g., those cited in the
  above references. Our list is limited to references that describe implementations in the
  FHI-aims code. The reason is purely practical (length of this list) - please credit others as well.

------------------------------------------------------------
          Leaving FHI-aims.
          Date     :  20240408, Time     :  091311.656

          Computational steps:
          | Number of self-consistency cycles          :            6
          | Number of SCF (re)initializations          :            1

          Detailed time accounting                     :  max(cpu_time)    wall_clock(cpu1)
          | Total time                                  :        1.059 s           1.092 s
          | Preparation time                            :        0.297 s           0.297 s
          | Boundary condition initalization            :        0.002 s           0.002 s
          | Grid partitioning                           :        0.006 s           0.006 s
          | Preloading free-atom quantities on grid     :        0.378 s           0.378 s
          | Free-atom superposition energy              :        0.003 s           0.003 s
          | Total time for integrations                 :        0.116 s           0.115 s
          | Total time for solution of K.-S. equations  :        0.040 s           0.098 s
          | Total time for density update               :        0.027 s           0.028 s
          | Total time for mixing                       :        0.002 s           0.002 s
          | Total time for Hartree multipole update     :        0.006 s           0.006 s
          | Total time for Hartree multipole sum        :        0.012 s           0.013 s
          | Total time for total energy evaluation      :        0.001 s           0.001 s
          | Total time for scaled ZORA corrections      :        0.000 s           0.000 s

          Partial memory accounting:
          | Residual value for overall tracked memory usage across tasks:     0.000000 MB (should be 0.000000 MB)
          | Peak values for overall tracked memory usage:
          |   Minimum:        1.959 MB (on task 3 after allocating wave)
          |   Maximum:        1.991 MB (on task 0 after allocating wave)
          |   Average:        1.973 MB
          | Largest tracked array allocation:
          |   Minimum:        0.543 MB (previous_rho_diff on task 0)
          |   Maximum:        0.551 MB (previous_rho_diff on task 3)
          |   Average:        0.547 MB
          Note:  These values currently only include a subset of arrays which are explicitly tracked.
          The "true" memory usage will be greater.

          Have a nice day.
------------------------------------------------------------
