/var/spool/slurmd/job01456/slurm_script: line 14: cd: too many arguments
Processing lattice constant 3.5 Angstrom.
Processing lattice constant 3.6 Angstrom.
Processing lattice constant 3.7 Angstrom.
Processing lattice constant 3.8 Angstrom.
Processing lattice constant 3.9 Angstrom.
Processing lattice constant 4.0 Angstrom.
Processing lattice constant 4.1 Angstrom.
