------------------------------------------------------------
          Invoking FHI-aims ...

          When using FHI-aims, please cite the following reference:

            Volker Blum, Ralf Gehrke, Felix Hanke, Paula Havu,
            Ville Havu, Xinguo Ren, Karsten Reuter, and Matthias Scheffler,
            'Ab Initio Molecular Simulations with Numeric Atom-Centered Orbitals',
            Computer Physics Communications 180, 2175-2196 (2009)

          In addition, many other developments in FHI-aims are likely important for
          your particular application. If so, please cite them. A partial list of references
          is written at the end of this file. Thank you for giving credit to the authors
          of these developments.

          For general information about FHI-aims please find us at

            https://fhi-aims.org

          Online tutorials can be found at

            https://fhi-aims-club.gitlab.io/tutorials/tutorials-overview/

          For any questions about FHI-aims, please visit our slack channel at

            https://fhi-aims.slack.com

          and our main development and support site at

            https://aims-git.rz-berlin.mpg.de .

          The latter site, in particular, has a wiki to collect information, as well
          as an issue tracker to log discussions, suggest improvements, and report issues
          or bugs. https://aims-git.rz-berlin.mpg.de is also the main development site
          of the project and all new and updated code versions can be obtained there.
          Please send an email to aims-coordinators@fhi-berlin.mpg.de and we will add
          you to these sites. They are for you and everyone is welcome there.

------------------------------------------------------------



  Date     :  20240405, Time     :  073923.658
  Time zero on CPU 1             :   0.102317000000000E+00  s.
  Internal wall clock time zero  :           481534763.658  s.

  FHI-aims created a unique identifier for this run for later identification
  aims_uuid : 698ACEAA-FBA0-42AE-AF58-5D5B481DE920

  Build configuration of the current instance of FHI-aims
  -------------------------------------------------------
  FHI-aims version      : 231208
  Commit number         : 567e07285
  CMake host system     : Linux-5.15.0-91-generic
  CMake version         : 3.22.1
  Fortran compiler      : /zpool-00/space/globalspace/intel-2023.0/mpi/2021.8.0/bin/mpiifort (Intel) version 2021.8.0.20221119
  Fortran compiler flags: -O3 -ip -fp-model precise -mavx
  C compiler            : /zpool-00/space/globalspace/intel-2023.0/compiler/2023.0.0/linux/bin/intel64/icc (Intel) version 2021.8.0.20221119
  C compiler flags      : -O3 -ip -fp-model precise -std=gnu99 -mavx
  C++ compiler          : /zpool-00/space/globalspace/intel-2023.0/mpi/2021.8.0/bin/mpiicpc (Intel) version 2021.8.0.20221119
  C++ compiler flags    : -O3 -ip -fp-model precise -std=c++11
  HIP compiler          :
  HIP compiler flags    :
  HIP GPU arch          :
  ELPA2 kernel          : AVX
  Using MPI
  Using ScaLAPACK
  Using LibXC
  Using i-PI
  Using RLSY
  Linking against: /zpool-00/space/globalspace/intel-2023.0/mkl/2023.0.0/lib/intel64/libmkl_intel_lp64.so
                   /zpool-00/space/globalspace/intel-2023.0/mkl/2023.0.0/lib/intel64/libmkl_sequential.so
                   /zpool-00/space/globalspace/intel-2023.0/mkl/2023.0.0/lib/intel64/libmkl_core.so
                   /zpool-00/space/globalspace/intel-2023.0/mkl/2023.0.0/lib/intel64/libmkl_blacs_intelmpi_lp64.so
                   /zpool-00/space/globalspace/intel-2023.0/mkl/2023.0.0/lib/intel64/libmkl_scalapack_lp64.so
                   /zpool-00/space/globalspace/intel-2023.0/mkl/2023.0.0/lib/intel64/libmkl_core.so

  Using       20 parallel tasks.
  Task        0 on host node2.timewarp reporting.
  Task        1 on host node2.timewarp reporting.
  Task        2 on host node2.timewarp reporting.
  Task        3 on host node2.timewarp reporting.
  Task        4 on host node2.timewarp reporting.
  Task        5 on host node2.timewarp reporting.
  Task        6 on host node2.timewarp reporting.
  Task        7 on host node2.timewarp reporting.
  Task        8 on host node2.timewarp reporting.
  Task        9 on host node2.timewarp reporting.
  Task       10 on host node2.timewarp reporting.
  Task       11 on host node2.timewarp reporting.
  Task       12 on host node2.timewarp reporting.
  Task       13 on host node2.timewarp reporting.
  Task       14 on host node2.timewarp reporting.
  Task       15 on host node2.timewarp reporting.
  Task       16 on host node2.timewarp reporting.
  Task       17 on host node2.timewarp reporting.
  Task       18 on host node2.timewarp reporting.
  Task       19 on host node2.timewarp reporting.

  Memory overcommitment is allowed on your operating system.

  Obtaining array dimensions for all initial allocations:
  
  -----------------------------------------------------------------------
  Parsing control.in (first pass over file, find array dimensions only).
  The contents of control.in will be repeated verbatim below
  unless switched off by setting 'verbatim_writeout .false.' .
  in the first line of control.in .
  -----------------------------------------------------------------------
  
  xc pw-lda
  spin none
  relativistic atomic_zora scalar
  
  k_grid 3 3 3
  
  ################################################################################
  #
  #  FHI-aims code project
  #  VB, Fritz-Haber Institut, 2009
  #
  #  Suggested "light" defaults for Si atom (to be pasted into control.in file)
  #  Be sure to double-check any results obtained with these settings for post-processing,
  #  e.g., with the "tight" defaults and larger basis sets.
  #
  #  2020/09/08 Added f function to "light" after reinspection of Delta test outcomes.
  #             This was done for all of Al-Cl and is a tricky decision since it makes
  #             "light" calculations measurably more expensive for these elements.
  #             Nevertheless, outcomes for P, S, Cl (and to some extent, Si) appear
  #             to justify this choice.
  #
  ################################################################################
    species        Si
  #     global species definitions
      nucleus             14
      mass                28.0855
  #
      l_hartree           4
  #
      cut_pot             3.5          1.5  1.0
      basis_dep_cutoff    1e-4
  #
      radial_base         42 5.0
      radial_multiplier   1
      angular_grids       specified
        division   0.5866   50
        division   0.9616  110
        division   1.2249  194
        division   1.3795  302
  #      division   1.4810  434
  #      division   1.5529  590
  #      division   1.6284  770
  #      division   1.7077  974
  #      division   2.4068 1202
  #      outer_grid   974
        outer_grid 302
  ################################################################################
  #
  #  Definition of "minimal" basis
  #
  ################################################################################
  #     valence basis states
      valence      3  s   2.
      valence      3  p   2.
  #     ion occupancy
      ion_occ      3  s   1.
      ion_occ      3  p   1.
  ################################################################################
  #
  #  Suggested additional basis functions. For production calculations,
  #  uncomment them one after another (the most important basis functions are
  #  listed first).
  #
  #  Constructed for dimers: 1.75 A, 2.0 A, 2.25 A, 2.75 A, 3.75 A
  #
  ################################################################################
  #  "First tier" - improvements: -571.96 meV to -37.03 meV
       hydro 3 d 4.2
       hydro 2 p 1.4
       hydro 4 f 6.2
       ionic 3 s auto
  #  "Second tier" - improvements: -16.76 meV to -3.03 meV
  #     hydro 3 d 9
  #     hydro 5 g 9.4
  #     hydro 4 p 4
  #     hydro 1 s 0.65
  #  "Third tier" - improvements: -3.89 meV to -0.60 meV
  #     ionic 3 d auto
  #     hydro 3 s 2.6
  #     hydro 4 f 8.4
  #     hydro 3 d 3.4
  #     hydro 3 p 7.8
  #  "Fourth tier" - improvements: -0.33 meV to -0.11 meV
  #     hydro 2 p 1.6
  #     hydro 5 g 10.8
  #     hydro 5 f 11.2
  #     hydro 3 d 1
  #     hydro 4 s 4.5
  #  Further basis functions that fell out of the optimization - noise
  #  level... < -0.08 meV
  #     hydro 4 d 6.6
  #     hydro 5 g 16.4
  #     hydro 4 d 9
  
  -----------------------------------------------------------------------
  Completed first pass over input file control.in .
  -----------------------------------------------------------------------
  
  
  -----------------------------------------------------------------------
  Parsing geometry.in (first pass over file, find array dimensions only).
  The contents of geometry.in will be repeated verbatim below
  unless switched off by setting 'verbatim_writeout .false.' .
  in the first line of geometry.in .
  -----------------------------------------------------------------------
  
      # bcc structure with lattice constant 3.2 Angstrom.
      lattice_vector 1.6 1.6 -1.6
      lattice_vector 1.6 -1.6 1.6
      lattice_vector -1.6 1.6 1.6
      atom_frac 0.0 0.0 0.0 Si
  
  -----------------------------------------------------------------------
  Completed first pass over input file geometry.in .
  -----------------------------------------------------------------------
  

  Basic array size parameters:
  | Number of species                 :        1
  | Number of atoms                   :        1
  | Number of lattice vectors         :        3
  | Max. basis fn. angular momentum   :        3
  | Max. atomic/ionic basis occupied n:        3
  | Max. number of basis fn. types    :        3
  | Max. radial fns per species/type  :        5
  | Max. logarithmic grid size        :     1346
  | Max. radial integration grid size :       42
  | Max. angular integration grid size:      302
  | Max. angular grid division number :        8
  | Radial grid for Hartree potential :     1346
  | Number of spin channels           :        1

------------------------------------------------------------
          Reading file control.in.
------------------------------------------------------------
  XC: Using Perdew-Wang parametrisation of Ceperley-Alder LDA.
  Spin treatment: No spin polarisation.
  Scalar relativistic treatment of kinetic energy: on-site free-atom approximation to ZORA.
  Found k-point grid:         3         3         3
 
  Reading configuration options for species Si                  .
  | Found nuclear charge :  14.0000
  | Found atomic mass :    28.0855000000000      amu
  | Found l_max for Hartree potential  :   4
  | Found cutoff potl. onset [A], width [A], scale factor :    3.50000    1.50000    1.00000
  | Threshold for basis-dependent cutoff potential is   0.100000E-03
  | Found data for basic radial integration grid :    42 points, outermost radius =    5.000 A
  | Found multiplier for basic radial grid :   1
  | Found angular grid specification: user-specified.
  | Specified grid contains     5 separate shells.
  | Check grid settings after all constraints further below.
  | Found free-atom valence shell :  3 s   2.000
  | Found free-atom valence shell :  3 p   2.000
  | Found free-ion valence shell :  3 s   1.000
  | Found free-ion valence shell :  3 p   1.000
  | Found hydrogenic basis function :  3 d   4.200
  | Found hydrogenic basis function :  2 p   1.400
  | Found hydrogenic basis function :  4 f   6.200
  | Found ionic basis function :  3 s , default cutoff radius.
  Species Si                  : Missing cutoff potential type.
  Defaulting to exp(1/x)/(1-x)^2 type cutoff potential.
  Species Si: No 'logarithmic' tag. Using default grid for free atom:
  | Default logarithmic grid data [bohr] : 0.1000E-03 0.1000E+03 0.1012E+01
  | Will include ionic basis functions of  2.0-fold positive Si                   ion.
  Species Si: On-site basis accuracy parameter (for Gram-Schmidt orthonormalisation) not specified.
  Using default value basis_acc =  0.1000000E-03.
  Species Si                  : Using default innermost maximum threshold i_radial=  2 for radial functions.
  Species Si                  : Default cutoff onset for free atom density etc. : 0.35000000E+01 AA.
  Species Si                  : Basic radial grid will be enhanced according to radial_multiplier =   1, to contain    42 grid points.
 
  Finished reading input file 'control.in'.
 
------------------------------------------------------------


------------------------------------------------------------
          Reading geometry description geometry.in.
------------------------------------------------------------
  | The smallest distance between any two atoms is         2.77128129 AA.
  | The first atom of this pair is atom number                      1 .
  | The second atom of this pair is atom number                     1 .
  | Wigner-Seitz cell of the first atom image           0     0     0 .
  | (The Wigner-Seitz cell of the second atom is 0 0 0  by definition.)

  Symmetry information by spglib:
  | Precision set to  0.1E-04
  | Number of Operations  : 48
  | Space group           : 229
  | International         : Im-3m    hp
  | Schoenflies           : Oh^9
  Input structure read successfully.
  The structure contains        1 atoms,  and a total of         14.000 electrons.

  Input geometry:
  | Unit cell:
  |        1.60000000        1.60000000       -1.60000000
  |        1.60000000       -1.60000000        1.60000000
  |       -1.60000000        1.60000000        1.60000000
  | Atomic structure:
  |       Atom                x [A]            y [A]            z [A]
  |    1: Species Si            0.00000000        0.00000000        0.00000000

  Lattice parameters for 3D lattice (in Angstroms) :     2.771281    2.771281    2.771281
  Angle(s) between unit vectors (in degrees)       :   109.471221  109.471221  109.471221


  Quantities derived from the lattice vectors (in Angstrom^-1):
  | Reciprocal lattice vector 1:  1.963495  1.963495 -0.000000
  | Reciprocal lattice vector 2:  1.963495 -0.000000  1.963495
  | Reciprocal lattice vector 3: -0.000000  1.963495  1.963495
  | Unit cell volume                               :   0.163840E+02  Angstrom^3

  Fractional coordinates:
                         L1                L2                L3
       atom_frac         0.00000000        0.00000000        0.00000000  Si

  Slab Identifier: This seems to be a bulk system.
 
  Finished reading input file 'geometry.in'.
 

 
  Consistency checks for stacksize environment parameter are next.
 
  | Maximum stacksize for task 0: unlimited
  | Maximum stacksize for task 1: unlimited
  | Maximum stacksize for task 2: unlimited
  | Maximum stacksize for task 3: unlimited
  | Maximum stacksize for task 4: unlimited
  | Maximum stacksize for task 5: unlimited
  | Maximum stacksize for task 6: unlimited
  | Maximum stacksize for task 7: unlimited
  | Maximum stacksize for task 8: unlimited
  | Maximum stacksize for task 9: unlimited
  | Maximum stacksize for task 10: unlimited
  | Maximum stacksize for task 11: unlimited
  | Maximum stacksize for task 12: unlimited
  | Maximum stacksize for task 13: unlimited
  | Maximum stacksize for task 14: unlimited
  | Maximum stacksize for task 15: unlimited
  | Maximum stacksize for task 16: unlimited
  | Maximum stacksize for task 17: unlimited
  | Maximum stacksize for task 18: unlimited
  | Maximum stacksize for task 19: unlimited
  | Current stacksize for task 0: unlimited
  | Current stacksize for task 1: unlimited
  | Current stacksize for task 2: unlimited
  | Current stacksize for task 3: unlimited
  | Current stacksize for task 4: unlimited
  | Current stacksize for task 5: unlimited
  | Current stacksize for task 6: unlimited
  | Current stacksize for task 7: unlimited
  | Current stacksize for task 8: unlimited
  | Current stacksize for task 9: unlimited
  | Current stacksize for task 10: unlimited
  | Current stacksize for task 11: unlimited
  | Current stacksize for task 12: unlimited
  | Current stacksize for task 13: unlimited
  | Current stacksize for task 14: unlimited
  | Current stacksize for task 15: unlimited
  | Current stacksize for task 16: unlimited
  | Current stacksize for task 17: unlimited
  | Current stacksize for task 18: unlimited
  | Current stacksize for task 19: unlimited
 
  Consistency checks for the contents of control.in are next.
 
  MPI_IN_PLACE appears to work with this MPI implementation.
  | Keeping use_mpi_in_place .true. (see manual).
  Target number of points in a grid batch is not set. Defaulting to  100
  Method for grid partitioning is not set. Defaulting to parallel hash+maxmin partitioning.
  Batch size limit is not set. Defaulting to    200
  By default, will store active basis functions for each batch.
  If in need of memory, prune_basis_once .false. can be used to disable this option.
  communication_type for Hartree potential was not specified.
  Defaulting to calc_hartree .
  Defaulting to Pulay charge density mixer.
  Pulay mixer: Number of relevant iterations not set.
  Defaulting to    8 iterations.
  Pulay mixer: Number of initial linear mixing iterations not set.
  Defaulting to    0 iterations.
  Work space size for distributed Hartree potential not set.
  Defaulting to   0.200000E+03 MB.
  Mixing parameter for charge density mixing has not been set.
  Using default: charge_mix_param =     0.0500.
  The mixing parameter will be adjusted in iteration number     2 of the first full s.c.f. cycle only.
  Algorithm-dependent basis array size parameters:
  | n_max_pulay                         :        8
  Maximum number of self-consistency iterations not provided.
  Presetting  1000 iterations.
  Presetting      1001 iterations before the initial mixing cycle
  is restarted anyway using the sc_init_iter criterion / keyword.
  Presetting a factor      1.000 between actual scf density residual
  and density convergence criterion sc_accuracy_rho below which sc_init_iter
  takes no effect.
 * No s.c.f. convergence criteria (sc_accuracy_*) were provided in control.in.
 * The run will proceed with a reasonable default guess, but please check whether.
 * the s.c.f. cycles seem to take too much or too little time.
  Calculation of forces was not defined in control.in. No forces will be calculated.
  Geometry relaxation not requested: no relaxation will be performed.
 * Notice: The s.c.f. convergence criterion sc_accuracy_rho was not provided.
 * We used to stop in this case, and ask the user to provide reasonable
 * scf convergence criteria. However, this led some users to employ criteria
 * that led to extremely long run times, e.g., for simple relaxation.
 * We now preset a default value for sc_accuracy_rho if it is not set.
 * You may still wish to check if this setting is too tight or too loose for your needs.
 * Based on n_atoms and forces and force-correction status, FHI-aims chose sc_accuracy_rho =  0.800000E-05 .
  No accuracy limit for integral partition fn. given. Defaulting to  0.1000E-14.
  No threshold value for u(r) in integrations given. Defaulting to  0.1000E-05.
  No occupation type (smearing scheme) given. Defaulting to Gaussian broadening, width =  0.1000E-01 eV.
  The width will be adjusted in iteration number     2 of the first full s.c.f. cycle only.
  S.C.F. convergence parameters will be adjusted in iteration number     2 of the first full s.c.f. cycle only.
  No accuracy for occupation numbers given. Defaulting to  0.1000E-12.
  No threshold value for occupation numbers given. Defaulting to  0.0000E+00.
  No accuracy for fermi level given. Defaulting to  0.1000E-19.
  Maximum # of iterations to find E_F not set. Defaulting to  200.
  Preferred method for the eigenvalue solver ('KS_method') not specified in 'control.in'.
  Defaulting to serial version, LAPACK (via ELSI), since more k-points than CPUs available.
  Will not use alltoall communication since running on < 1024 CPUs.
  Threshold for basis singularities not set.
  Default threshold for basis singularities:  0.1000E-04
  partition_type (choice of integration weights) for integrals was not specified.
  | Using a version of the partition function of Stratmann and coworkers ('stratmann_sparse').
  | At each grid point, the set of atoms used to build the partition table is smoothly restricted to
  | only those atoms whose free-atom density would be non-zero at that grid point.
  Partitioning for Hartree potential was not defined. Using partition_type for integrals.
  | Adjusted default value of keyword multip_moments_threshold to:       0.10000000E-11
  | This value may affect high angular momentum components of the Hartree potential in periodic systems.
  No q(lm)/r^(l+1) cutoff set for long-range Hartree potential.
  | Using default value of  0.100000E-09 .
  | Verify using the multipole_threshold keyword.
  Defaulting to new monopole extrapolation.
  Density update method: automatic selection selected.
  Using density matrix based charge density update.
  Using density matrix based charge density update.
  Using packed matrix style: index .
  Defaulting to use time-reversal symmetry for k-point grid.
  Charge integration errors on the 3D integration grid will be compensated
  by explicit normalization and distribution of residual charges.
  Use the "compensate_multipole_errors" flag to change this behaviour.
  Set 'collect_eigenvectors' to be '.true.' for all serial calculations. This is mandatory.
  Set 'collect_eigenvectors' to be '.true.' for KS_method lapack_fast and serial.
 
  Consistency checks for the contents of geometry.in are next.
 

  Range separation radius for Ewald summation (hartree_convergence_parameter):      3.60963512 bohr.
  Number of empty states per atom not set in control.in - providing a guess from actual geometry.
  | Total number of empty states used during s.c.f. cycle:        3
  If you use a very high smearing, use empty_states (per atom!) in control.in to increase this value.

  Structure-dependent array size parameters: 
  | Maximum number of distinct radial functions  :        9
  | Maximum number of basis functions            :       25
  | Number of Kohn-Sham states (occupied + empty):       10
------------------------------------------------------------
  After read_input_data [GB]:     63.44

  Performing system and environment tests:
  | Environment variable OMP_NUM_THREADS correctly set to 1.
  | Checking for ScaLAPACK...
  | Testing pdtran()...
  | All pdtran() tests passed.
  After prepare_system [GB]:     63.34

------------------------------------------------------------
          Preparing all fixed parts of the calculation.
------------------------------------------------------------
  Determining machine precision:
    2.225073858507201E-308
  Setting up grids for atomic and cluster calculations.

  Creating wave function, potential, and density for free atoms.
  Runtime choices for atomic solver:
  | atomic solver xc        : PW-LDA
  | compute density gradient: 0
  | compute kinetic density : F

  Species: Si

  List of occupied orbitals and eigenvalues:
    n    l              occ      energy [Ha]    energy [eV]
    1    0           2.0000       -65.491668     -1782.1190
    2    0           2.0000        -5.087967      -138.4506
    3    0           2.0000        -0.391471       -10.6525
    2    1           6.0000        -3.502246       -95.3010
    3    1           2.0000        -0.143943        -3.9169


  Adding cutoff potential to free-atom effective potential.
  Creating fixed part of basis set: Ionic, confined, hydrogenic.
 
  Si                   ion:

  List of free ionic orbitals and eigenvalues:
    n    l      energy [Ha]    energy [eV]
    1    0       -66.364436     -1805.8682
    2    0        -5.935799      -161.5213
    3    0        -1.078166       -29.3384
    2    1        -4.351123      -118.4001
    3    1        -0.781733       -21.2720


  List of ionic basis orbitals and eigenvalues:
    n    l      energy [Ha]    energy [eV]    outer radius [A]
    3    0        -1.078146       -29.3378       4.214062

 
  Si                   hydrogenic:
 
  List of hydrogenic basis orbitals: 
    n    l      effective z      eigenvalue [eV]  inner max. [A]     outer max. [A]     outer radius [A]   
    3    2         4.200000       -26.6624           1.139231           1.139231           4.534782
    2    1         1.400000        -6.4613           1.472672           1.472672           4.590560
    4    3         6.200000       -32.6778           1.368518           1.368518           4.534782
 
  Creating atomic-like basis functions for current effective potential.

  Species Si                  :

  List of atomic basis orbitals and eigenvalues:
    n    l      energy [Ha]    energy [eV]    outer radius [A]
    1    0       -65.491668     -1782.1190       0.789468
    2    0        -5.087967      -138.4506       2.815114
    3    0        -0.391471       -10.6525       4.534782
    2    1        -3.502246       -95.3010       3.259919
    3    1        -0.143943        -3.9169       4.590560

  Assembling full basis from fixed parts.
  | Species Si :   atomic orbital   1 s accepted.
  | Species Si :   atomic orbital   2 s accepted.
  | Species Si :    ionic orbital   3 s accepted.
  | Species Si :   atomic orbital   3 s accepted.
  | Species Si :   atomic orbital   2 p accepted.
  | Species Si :   atomic orbital   3 p accepted.
  | Species Si :    hydro orbital   2 p accepted.
  | Species Si :    hydro orbital   3 d accepted.
  | Species Si :    hydro orbital   4 f accepted.
 
  Basis size parameters after reduction:
  | Total number of radial functions:        9
  | Total number of basis functions :       25
 
  Per-task memory consumption for arrays in subroutine allocate_ext:
  |           3.102264MB.
  Testing on-site integration grid accuracy.
  |  Species  Function  <phi|h_atom|phi> (log., in eV)  <phi|h_atom|phi> (rad., in eV)
           1        1              -1782.1189727076              -1782.1182429251
           1        2               -138.4506350693               -138.4506310079
           1        3                -10.3030408815                -10.3029120678
           1        4                  5.0238999146                  4.9457540310 ***
           1        5                -95.3009689499                -95.3009689315
           1        6                 -3.9266496564                 -3.9420918374
           1        7                  6.3453628447                  6.1632372158 ***
           1        8                  6.2883050744                  6.2861881409
           1        9                 19.3222464920                 19.3177041052
 * Note: Onsite integrals marked "***" above are less accurate than
 * onsite_accuracy_threshold =    0.03000 eV. Usually, this is harmless.
 * When in doubt, tighten the "radial" and/or "radial_multiplier" flags to check.

  Preparing densities etc. for the partition functions (integrals / Hartree potential).

  Preparations completed.
  max(cpu_time)          :      0.182 s.
  Wall clock time (cpu1) :      0.181 s.
------------------------------------------------------------
  After prepare_scf [GB]:     63.18

  Initializing index lists of integration centers etc. from given atomic structure:
  Mapping all atomic coordinates to central unit cell.

  Initializing the k-points
  Using symmetry for reducing the k-points
  | k-points reduced from:       27 to       14
  | Number of k-points                             :        14
  The eigenvectors in the calculations are COMPLEX.
  | K-points in task   0:         0
  | K-points in task   1:         1
  | K-points in task   2:         1
  | K-points in task   3:         1
  | K-points in task   4:         1
  | K-points in task   5:         1
  | K-points in task   6:         1
  | K-points in task   7:         1
  | K-points in task   8:         1
  | K-points in task   9:         1
  | K-points in task  10:         1
  | K-points in task  11:         1
  | K-points in task  12:         1
  | K-points in task  13:         1
  | K-points in task  14:         1
  | K-points in task  15:         0
  | K-points in task  16:         0
  | K-points in task  17:         0
  | K-points in task  18:         0
  | K-points in task  19:         0
  | Number of basis functions in the Hamiltonian integrals :      1937
  | Number of basis functions in a single unit cell        :        25
  | Number of centers in hartree potential         :       725
  | Number of centers in hartree multipole         :       331
  | Number of centers in electron density summation:       229
  | Number of centers in basis integrals           :       259
  | Number of centers in integrals                 :        89
  | Number of centers in hamiltonian               :       229
  | Consuming         50 KiB for k_phase.
  | Number of super-cells (origin) [n_cells]                     :        3375
  | Number of super-cells (after PM_index) [n_cells]             :         230
  | Number of super-cells in hamiltonian [n_cells_in_hamiltonian]:         230
  | Size of matrix packed + index [n_hamiltonian_matrix_size] :       53860
  After initialize_bc_dependent_lists [GB]:     63.15

------------------------------------------------------------
          Begin self-consistency loop: Initialization.

          Date     :  20240405, Time     :  073923.965
------------------------------------------------------------
  Available memory per node after initialize_hartree_non_periodic_ewald [GB]:     63.15
  | Estimated reciprocal-space cutoff momentum G_max:         2.59545861 bohr^-1 .
  | Reciprocal lattice points for long-range Hartree potential:      42
  Available memory per node after initialize_recip_hartree_potential [GB]:     63.15
  Available memory per node after initialize_scalapack [GB]:     63.15
  Available memory per node after aims_elsi_init_scf [GB]:     63.15
  Available memory per node after initialize_fixed_grids [GB]:     63.15
  Partitioning the integration grid into batches with parallel hashing+maxmin method.
  | Number of batches:       78
  | Maximal batch size:     107
  | Minimal batch size:       7
  | Average batch size:      71.846
  | Standard deviation of batch sizes:      23.071

  Integration load balanced across    20 MPI tasks.
  Work distribution over tasks is as follows:
  Task     0 has        289 integration points.
  Task     1 has        290 integration points.
  Task     2 has        329 integration points.
  Task     3 has        274 integration points.
  Task     4 has        275 integration points.
  Task     5 has        279 integration points.
  Task     6 has        273 integration points.
  Task     7 has        257 integration points.
  Task     8 has        276 integration points.
  Task     9 has        254 integration points.
  Task    10 has        275 integration points.
  Task    11 has        267 integration points.
  Task    12 has        271 integration points.
  Task    13 has        250 integration points.
  Task    14 has        278 integration points.
  Task    15 has        292 integration points.
  Task    16 has        282 integration points.
  Task    17 has        300 integration points.
  Task    18 has        320 integration points.
  Task    19 has        273 integration points.
  Available memory per node after partition_grid [GB]:     63.15
  Initializing partition tables, free-atom densities, potentials, etc. across the integration grid (initialize_grid_storage).
  | initialize_grid_storage: Actual outermost partition radius vs. multipole_radius_free
  | (-- VB: in principle, multipole_radius_free should be larger, hence this output)
  | Species        1: Confinement radius =              4.999999999999999 AA, multipole_radius_free =              5.000694715736543 AA.
  | Species        1: outer_partition_radius set to              5.000694715736543 AA .
  | The sparse table of interatomic distances needs        375.51 kbyte instead of       536.65 kbyte of memory.
  | Net number of integration points:     5604
  | of which are non-zero points    :     4652
  | Numerical average free-atom electrostatic potential    :    -16.05657051 eV
  Available memory per node after initialize_grid_storage_p1 [GB]:     63.09
  Renormalizing the initial density to the exact electron count on the 3D integration grid.
  | Initial density: Formal number of electrons (from input files) :      14.0000000000
  | Integrated number of electrons on 3D grid     :      14.0001703893
  | Charge integration error                      :       0.0001703893
  | Normalization factor for density and gradient :       0.9999878295
  Renormalizing the free-atom superposition density to the exact electron count on the 3D integration grid.
  | Formal number of electrons (from input files) :      14.0000000000
  | Integrated number of electrons on 3D grid     :      14.0001703893
  | Charge integration error                      :       0.0001703893
  | Normalization factor for density and gradient :       0.9999878295
  Obtaining max. number of non-zero basis functions in each batch (get_n_compute_maxes).
  | Maximal number of non-zero basis functions:      763 in task     0
  | Maximal number of non-zero basis functions:      732 in task     1
  | Maximal number of non-zero basis functions:      699 in task     2
  | Maximal number of non-zero basis functions:      754 in task     3
  | Maximal number of non-zero basis functions:      772 in task     4
  | Maximal number of non-zero basis functions:      758 in task     5
  | Maximal number of non-zero basis functions:      802 in task     6
  | Maximal number of non-zero basis functions:      742 in task     7
  | Maximal number of non-zero basis functions:      733 in task     8
  | Maximal number of non-zero basis functions:      758 in task     9
  | Maximal number of non-zero basis functions:      765 in task    10
  | Maximal number of non-zero basis functions:      736 in task    11
  | Maximal number of non-zero basis functions:      777 in task    12
  | Maximal number of non-zero basis functions:      743 in task    13
  | Maximal number of non-zero basis functions:      765 in task    14
  | Maximal number of non-zero basis functions:      778 in task    15
  | Maximal number of non-zero basis functions:      784 in task    16
  | Maximal number of non-zero basis functions:      772 in task    17
  | Maximal number of non-zero basis functions:      778 in task    18
  | Maximal number of non-zero basis functions:      743 in task    19
  Available memory per node after get_n_compute_maxes_p1 [GB]:     63.09
  Allocating        0.000 MB for KS_eigenvector_complex
  Available memory per node after allocate_matrices [GB]:     63.09
  Available memory per node after init_comm_sparse_local_matrix_scalapack [GB]:     63.09
  Integrating Hamiltonian matrix: batch-based integration.
  Time summed over all CPUs for integration: real work        0.715 s, elapsed        0.867 s
  Available memory per node after integrate hamiltonian matrix [GB]:     62.96
  Integrating overlap matrix.
  Time summed over all CPUs for integration: real work        0.532 s, elapsed        0.636 s
  Available memory per node after integrate ovlp matrix [GB]:     62.93
  Available memory per node after ASI_callbacks invoke [GB]:     62.93
  Decreasing sparse matrix size:
  | Tolerance:  0.1000E-12
  Hamiltonian matrix
  | Array has    39921 nonzero elements out of    53860 elements
  | Sparsity factor is 0.259
  Overlap matrix
  | Array has    37643 nonzero elements out of    53860 elements
  | Sparsity factor is 0.301
  New size of hamiltonian matrix:       40190
  Available memory per node after save_overlap_scalapack [GB]:     62.93

  Updating Kohn-Sham eigenvalues and eigenvectors using ELSI and the (modified) LAPACK eigensolver.

  Obtaining occupation numbers and electronic chemical potential using ELSI.
  | Note that, for insulating systems, the printed 'chemical potential' value is not uniquely defined.
  | It can be anywhere in the energy gap, as long as it correctly separates occupied and unoccupied states.
  | In systems with a gap, the physically relevant chemical potential is the VBM or HOMO.

  | Chemical potential (Fermi level):    -6.66312965 eV
  Available memory per node after advance_KS_solution [GB]:     62.93
  Writing Kohn-Sham eigenvalues.
  K-point:       1 at    0.000000    0.000000    0.000000 (in units of recip. lattice)

  State    Occupation    Eigenvalue [Ha]    Eigenvalue [eV]
      1       2.00000         -65.501911        -1782.39770
      2       2.00000          -5.101496         -138.81877
      3       2.00000          -3.515563          -95.66332
      4       2.00000          -3.515563          -95.66332
      5       2.00000          -3.515563          -95.66332
      6       2.00000          -0.693692          -18.87632
      7       0.00000           0.157122            4.27552
      8       0.00000           0.157122            4.27552
      9       0.00000           0.157122            4.27552
     10       0.00000           0.241360            6.56773

  What follows are estimated values for band gap, HOMO, LUMO, etc.
  | They are estimated on a discrete k-point grid and not necessarily exact.
  | For converged numbers, create a DOS and/or band structure plot on a denser k-grid.

  Highest occupied state (VBM) at     -6.67290889 eV (relative to internal zero)
  | Occupation number:      1.83333333
  | K-point:       2 at    0.000000    0.000000    0.333333 (in units of recip. lattice)

  Lowest unoccupied state (CBM) at    -4.69582278 eV (relative to internal zero)
  | Occupation number:      0.00000000
  | K-point:      11 at    0.333333    0.666667    0.333333 (in units of recip. lattice)

  ESTIMATED overall HOMO-LUMO gap:      1.97708612 eV between HOMO at k-point 2 and LUMO at k-point 11
  | This appears to be an indirect band gap.
  | Smallest direct gap :      6.51624837 eV for k_point 13 at    0.666667    0.333333    0.000000 (in units of recip. lattice)
  However, this system has fractional occupation numbers. Since we use a finite k-point grid,
  this material is metallic within the approximate finite broadening function (occupation_type)
  applied to determine the occupation numbers.
  Calculating total energy contributions from superposition of free atom densities.

  Total energy components:
  | Sum of eigenvalues            :        -163.90401501 Ha       -4460.05517349 eV
  | XC energy correction          :         -19.84519206 Ha        -540.01515150 eV
  | XC potential correction       :          26.21846199 Ha         713.44065027 eV
  | Free-atom electrostatic energy:        -131.82852980 Ha       -3587.23681246 eV
  | Hartree energy correction     :           0.00000000 Ha           0.00000000 eV
  | Entropy correction            :          -0.00001771 Ha          -0.00048182 eV
  | ---------------------------
  | Total energy                  :        -289.35927487 Ha       -7873.86648718 eV
  | Total energy, T -> 0          :        -289.35929258 Ha       -7873.86696900 eV  <-- do not rely on this value for anything but (periodic) metals
  | Electronic free energy        :        -289.35931028 Ha       -7873.86745081 eV

  Derived energy quantities:
  | Kinetic energy                :         289.86442012 Ha        7887.61218873 eV
  | Electrostatic energy          :        -559.37850294 Ha      -15221.46352441 eV
  | Energy correction for multipole
  | error in Hartree potential    :           0.00000000 Ha           0.00000000 eV
  | Sum of eigenvalues per atom                           :       -4460.05517349 eV
  | Total energy (T->0) per atom                          :       -7873.86696900 eV  <-- do not rely on this value for anything but (periodic) metals
  | Electronic free energy per atom                       :       -7873.86745081 eV
  Initialize hartree_potential_storage
  Max. number of atoms included in rho_multipole:            1

  End scf initialization - timings             :  max(cpu_time)    wall_clock(cpu1)
  | Time for scf. initialization                :        0.115 s           0.114 s
  | Boundary condition initialization           :        0.063 s           0.062 s
  | Integration                                 :        0.081 s           0.081 s
  | Solution of K.-S. eqns.                     :        0.002 s           0.001 s
  | Grid partitioning                           :        0.006 s           0.005 s
  | Preloading free-atom quantities on grid     :        0.023 s           0.023 s
  | Free-atom superposition energy              :        0.002 s           0.002 s
  | Total energy evaluation                     :        0.000 s           0.000 s

  Partial memory accounting:
  | Current value for overall tracked memory usage:
  |   Minimum:        0.793 MB (on task  0)
  |   Maximum:        0.796 MB (on task  1)
  |   Average:        0.795 MB
  | Peak value for overall tracked memory usage:
  |   Minimum:        6.497 MB (on task  2 after allocating wave)
  |   Maximum:        7.929 MB (on task  6 after allocating wave)
  |   Average:        7.296 MB
  | Largest tracked array allocation so far:
  |   Minimum:        3.728 MB (hamiltonian_shell on task  2)
  |   Maximum:        4.907 MB (hamiltonian_shell on task  6)
  |   Average:        4.384 MB
  Note:  These values currently only include a subset of arrays which are explicitly tracked.
  The "true" memory usage will be greater.
------------------------------------------------------------
  Available memory after initialize_scf [GB]:     62.92
  Available memory after allocating mixing [GB]:     62.92
  Evaluating new KS density using the density matrix
  Evaluating density matrix
  Time summed over all CPUs for getting density from density matrix: real work        0.851 s, elapsed        1.011 s
  Integration grid: deviation in total charge (<rho> - N_e) =   7.638334E-14

  Time for density update prior                :  max(cpu_time)    wall_clock(cpu1)
  | self-consistency iterative process          :        0.052 s           0.052 s
  Available memory before start of SCF loop [GB]:     62.88

------------------------------------------------------------
          Begin self-consistency iteration #    1

  Date     :  20240405, Time     :  073924.131
------------------------------------------------------------
  Pulay mixing of updated and previous charge densities.
  Available memory per node after mixing [GB]:     62.88
  Renormalizing the density to the exact electron count on the 3D integration grid.
  | Formal number of electrons (from input files) :      14.0000000000
  | Integrated number of electrons on 3D grid     :      14.0000000000
  | Charge integration error                      :       0.0000000000
  | Normalization factor for density and gradient :       1.0000000000

  Evaluating partitioned Hartree potential by multipole expansion.
  | Original multipole sum: apparent total charge =   0.965940E-15
  | Sum of charges compensated after spline to logarithmic grids =  -0.795853E-07
  | Analytical far-field extrapolation by fixed multipoles:
  | Hartree multipole sum: apparent total charge =   0.000000E+00
  Summing up the Hartree potential.
  Time summed over all CPUs for potential: real work        0.005 s, elapsed        0.007 s
  | RMS charge density error from multipole expansion :   0.899073E-04
  | Average real-space part of the electrostatic potential :     -0.01704156 eV

  Integrating Hamiltonian matrix: batch-based integration.
  Time summed over all CPUs for integration: real work        0.679 s, elapsed        0.795 s

  Updating Kohn-Sham eigenvalues and eigenvectors using ELSI and the (modified) LAPACK eigensolver.

  Obtaining occupation numbers and electronic chemical potential using ELSI.
  | Note that, for insulating systems, the printed 'chemical potential' value is not uniquely defined.
  | It can be anywhere in the energy gap, as long as it correctly separates occupied and unoccupied states.
  | In systems with a gap, the physically relevant chemical potential is the VBM or HOMO.

  | Chemical potential (Fermi level):    -6.66864601 eV
  Writing Kohn-Sham eigenvalues.
  K-point:       1 at    0.000000    0.000000    0.000000 (in units of recip. lattice)

  State    Occupation    Eigenvalue [Ha]    Eigenvalue [eV]
      1       2.00000         -65.504745        -1782.47482
      2       2.00000          -5.103578         -138.87542
      3       2.00000          -3.517691          -95.72124
      4       2.00000          -3.517691          -95.72124
      5       2.00000          -3.517691          -95.72124
      6       2.00000          -0.693850          -18.88061
      7       0.00000           0.156652            4.26273
      8       0.00000           0.156652            4.26273
      9       0.00000           0.156652            4.26273
     10       0.00000           0.241137            6.56168

  What follows are estimated values for band gap, HOMO, LUMO, etc.
  | They are estimated on a discrete k-point grid and not necessarily exact.
  | For converged numbers, create a DOS and/or band structure plot on a denser k-grid.

  Highest occupied state (VBM) at     -6.67842525 eV (relative to internal zero)
  | Occupation number:      1.83333326
  | K-point:      13 at    0.666667    0.333333    0.000000 (in units of recip. lattice)

  Lowest unoccupied state (CBM) at    -4.70213920 eV (relative to internal zero)
  | Occupation number:      0.00000000
  | K-point:      11 at    0.333333    0.666667    0.333333 (in units of recip. lattice)

  ESTIMATED overall HOMO-LUMO gap:      1.97628605 eV between HOMO at k-point 13 and LUMO at k-point 11
  | This appears to be an indirect band gap.
  | Smallest direct gap :      6.51231042 eV for k_point 13 at    0.666667    0.333333    0.000000 (in units of recip. lattice)
  However, this system has fractional occupation numbers. Since we use a finite k-point grid,
  this material is metallic within the approximate finite broadening function (occupation_type)
  applied to determine the occupation numbers.

  Total energy components:
  | Sum of eigenvalues            :        -163.92735570 Ha       -4460.69030596 eV
  | XC energy correction          :         -19.84326136 Ha        -539.96261449 eV
  | XC potential correction       :          26.21590811 Ha         713.37115557 eV
  | Free-atom electrostatic energy:        -131.82852980 Ha       -3587.23681246 eV
  | Hartree energy correction     :           0.02406840 Ha           0.65493455 eV
  | Entropy correction            :          -0.00001771 Ha          -0.00048182 eV
  | ---------------------------
  | Total energy                  :        -289.35917034 Ha       -7873.86364279 eV
  | Total energy, T -> 0          :        -289.35918805 Ha       -7873.86412461 eV  <-- do not rely on this value for anything but (periodic) metals
  | Electronic free energy        :        -289.35920576 Ha       -7873.86460642 eV

  Derived energy quantities:
  | Kinetic energy                :         289.84188856 Ha        7886.99907384 eV
  | Electrostatic energy          :        -559.35779755 Ha      -15220.90010214 eV
  | Energy correction for multipole
  | error in Hartree potential    :           0.00001399 Ha           0.00038075 eV
  | Sum of eigenvalues per atom                           :       -4460.69030596 eV
  | Total energy (T->0) per atom                          :       -7873.86412461 eV  <-- do not rely on this value for anything but (periodic) metals
  | Electronic free energy per atom                       :       -7873.86460642 eV
  Evaluating new KS density using the density matrix
  Evaluating density matrix
  Time summed over all CPUs for getting density from density matrix: real work        0.787 s, elapsed        0.890 s
  Integration grid: deviation in total charge (<rho> - N_e) =  -1.083578E-13

  Self-consistency convergence accuracy:
  | Change of charge density      :  0.3034E-01
  | Change of unmixed KS density  :  0.2297E+02
  | Change of sum of eigenvalues  : -0.6351E+00 eV
  | Change of total energy        :  0.2844E-02 eV


------------------------------------------------------------
  End self-consistency iteration #     1       :  max(cpu_time)    wall_clock(cpu1)
  | Time for this iteration                     :        0.100 s           0.100 s
  | Charge density update                       :        0.045 s           0.046 s
  | Density mixing                              :        0.000 s           0.000 s
  | Hartree multipole update                    :        0.001 s           0.001 s
  | Hartree multipole summation                 :        0.009 s           0.009 s
  | Integration                                 :        0.044 s           0.043 s
  | Solution of K.-S. eqns.                     :        0.001 s           0.001 s
  | Total energy evaluation                     :        0.000 s           0.000 s

  Partial memory accounting:
  | Current value for overall tracked memory usage:
  |   Minimum:        0.832 MB (on task 19)
  |   Maximum:        0.844 MB (on task  2)
  |   Average:        0.836 MB
  | Peak value for overall tracked memory usage:
  |   Minimum:        6.497 MB (on task  2 after allocating wave)
  |   Maximum:        7.929 MB (on task  6 after allocating wave)
  |   Average:        7.296 MB
  | Largest tracked array allocation so far:
  |   Minimum:        3.728 MB (hamiltonian_shell on task  2)
  |   Maximum:        4.907 MB (hamiltonian_shell on task  6)
  |   Average:        4.384 MB
  Note:  These values currently only include a subset of arrays which are explicitly tracked.
  The "true" memory usage will be greater.
------------------------------------------------------------

------------------------------------------------------------
          Begin self-consistency iteration #    2

  Date     :  20240405, Time     :  073924.232
------------------------------------------------------------
  Pulay mixing of updated and previous charge densities.
  Available memory per node after mixing [GB]:     62.87
  Renormalizing the density to the exact electron count on the 3D integration grid.
  | Formal number of electrons (from input files) :      14.0000000000
  | Integrated number of electrons on 3D grid     :      14.0000000000
  | Charge integration error                      :      -0.0000000000
  | Normalization factor for density and gradient :       1.0000000000

  Evaluating partitioned Hartree potential by multipole expansion.
  | Original multipole sum: apparent total charge =   0.161919E-14
  | Sum of charges compensated after spline to logarithmic grids =  -0.110498E-05
  | Analytical far-field extrapolation by fixed multipoles:
  | Hartree multipole sum: apparent total charge =   0.000000E+00
  Summing up the Hartree potential.
  Time summed over all CPUs for potential: real work        0.006 s, elapsed        0.006 s
  | RMS charge density error from multipole expansion :   0.136783E-02
  | Average real-space part of the electrostatic potential :     -0.25953436 eV

  Integrating Hamiltonian matrix: batch-based integration.
  Time summed over all CPUs for integration: real work        0.651 s, elapsed        0.741 s

  Updating Kohn-Sham eigenvalues and eigenvectors using ELSI and the (modified) LAPACK eigensolver.

  Obtaining occupation numbers and electronic chemical potential using ELSI.
  | Note that, for insulating systems, the printed 'chemical potential' value is not uniquely defined.
  | It can be anywhere in the energy gap, as long as it correctly separates occupied and unoccupied states.
  | In systems with a gap, the physically relevant chemical potential is the VBM or HOMO.

  | Chemical potential (Fermi level):    -6.74604252 eV
  What follows are estimated values for band gap, HOMO, LUMO, etc.
  | They are estimated on a discrete k-point grid and not necessarily exact.
  | For converged numbers, create a DOS and/or band structure plot on a denser k-grid.

  Highest occupied state (VBM) at     -6.75582176 eV (relative to internal zero)
  | Occupation number:      1.83333331
  | K-point:       8 at    0.333333    0.000000    0.666667 (in units of recip. lattice)

  Lowest unoccupied state (CBM) at    -4.79057075 eV (relative to internal zero)
  | Occupation number:      0.00000000
  | K-point:      12 at    0.333333    0.666667    0.666667 (in units of recip. lattice)

  ESTIMATED overall HOMO-LUMO gap:      1.96525101 eV between HOMO at k-point 8 and LUMO at k-point 12
  | This appears to be an indirect band gap.
  | Smallest direct gap :      6.45687736 eV for k_point 8 at    0.333333    0.000000    0.666667 (in units of recip. lattice)
  However, this system has fractional occupation numbers. Since we use a finite k-point grid,
  this material is metallic within the approximate finite broadening function (occupation_type)
  applied to determine the occupation numbers.

  Checking to see if s.c.f. parameters should be adjusted.
  Adjusted the Pulay mixing parameter (charge_mix_param) for an expected low-gap system. New value:   0.020000 .
  Adjusted the occupation broadening width for an expected low-gap system. New value:      0.05000000 eV.

  Total energy components:
  | Sum of eigenvalues            :        -164.25716083 Ha       -4469.66476031 eV
  | XC energy correction          :         -19.81650232 Ha        -539.23446401 eV
  | XC potential correction       :          26.18051101 Ha         712.40795145 eV
  | Free-atom electrostatic energy:        -131.82852980 Ha       -3587.23681246 eV
  | Hartree energy correction     :           0.36326308 Ha           9.88489133 eV
  | Entropy correction            :          -0.00022173 Ha          -0.00603350 eV
  | ---------------------------
  | Total energy                  :        -289.35841886 Ha       -7873.84319400 eV
  | Total energy, T -> 0          :        -289.35864059 Ha       -7873.84922750 eV  <-- do not rely on this value for anything but (periodic) metals
  | Electronic free energy        :        -289.35886232 Ha       -7873.85526100 eV

  Derived energy quantities:
  | Kinetic energy                :         289.52423061 Ha        7878.35516115 eV
  | Electrostatic energy          :        -559.06614715 Ha      -15212.96389114 eV
  | Energy correction for multipole
  | error in Hartree potential    :           0.00021994 Ha           0.00598495 eV
  | Sum of eigenvalues per atom                           :       -4469.66476031 eV
  | Total energy (T->0) per atom                          :       -7873.84922750 eV  <-- do not rely on this value for anything but (periodic) metals
  | Electronic free energy per atom                       :       -7873.85526100 eV
  Evaluating new KS density using the density matrix
  Evaluating density matrix
  Time summed over all CPUs for getting density from density matrix: real work        0.788 s, elapsed        0.891 s
  Integration grid: deviation in total charge (<rho> - N_e) =   2.131628E-14

  Self-consistency convergence accuracy:
  | Change of charge density      :  0.2841E-01
  | Change of unmixed KS density  :  0.5611E-03
  | Change of sum of eigenvalues  : -0.8974E+01 eV
  | Change of total energy        :  0.2045E-01 eV


------------------------------------------------------------
  End self-consistency iteration #     2       :  max(cpu_time)    wall_clock(cpu1)
  | Time for this iteration                     :        0.097 s           0.097 s
  | Charge density update                       :        0.045 s           0.046 s
  | Density mixing                              :        0.000 s           0.000 s
  | Hartree multipole update                    :        0.001 s           0.001 s
  | Hartree multipole summation                 :        0.008 s           0.008 s
  | Integration                                 :        0.041 s           0.041 s
  | Solution of K.-S. eqns.                     :        0.001 s           0.001 s
  | Total energy evaluation                     :        0.000 s           0.000 s

  Partial memory accounting:
  | Current value for overall tracked memory usage:
  |   Minimum:        0.833 MB (on task 19)
  |   Maximum:        0.845 MB (on task  2)
  |   Average:        0.836 MB
  | Peak value for overall tracked memory usage:
  |   Minimum:        6.497 MB (on task  2 after allocating wave)
  |   Maximum:        7.929 MB (on task  6 after allocating wave)
  |   Average:        7.296 MB
  | Largest tracked array allocation so far:
  |   Minimum:        3.728 MB (hamiltonian_shell on task  2)
  |   Maximum:        4.907 MB (hamiltonian_shell on task  6)
  |   Average:        4.384 MB
  Note:  These values currently only include a subset of arrays which are explicitly tracked.
  The "true" memory usage will be greater.
------------------------------------------------------------

------------------------------------------------------------
          Begin self-consistency iteration #    3

  Date     :  20240405, Time     :  073924.329
------------------------------------------------------------
  Pulay mixing of updated and previous charge densities.
  Available memory per node after mixing [GB]:     62.87
  Renormalizing the density to the exact electron count on the 3D integration grid.
  | Formal number of electrons (from input files) :      14.0000000000
  | Integrated number of electrons on 3D grid     :      14.0000000000
  | Charge integration error                      :      -0.0000000000
  | Normalization factor for density and gradient :       1.0000000000

  Evaluating partitioned Hartree potential by multipole expansion.
  | Original multipole sum: apparent total charge =  -0.322995E-14
  | Sum of charges compensated after spline to logarithmic grids =  -0.120324E-05
  | Analytical far-field extrapolation by fixed multipoles:
  | Hartree multipole sum: apparent total charge =   0.000000E+00
  Summing up the Hartree potential.
  Time summed over all CPUs for potential: real work        0.006 s, elapsed        0.007 s
  | RMS charge density error from multipole expansion :   0.146379E-02
  | Average real-space part of the electrostatic potential :     -0.27935233 eV

  Integrating Hamiltonian matrix: batch-based integration.
  Time summed over all CPUs for integration: real work        0.651 s, elapsed        0.742 s

  Updating Kohn-Sham eigenvalues and eigenvectors using ELSI and the (modified) LAPACK eigensolver.

  Obtaining occupation numbers and electronic chemical potential using ELSI.
  | Note that, for insulating systems, the printed 'chemical potential' value is not uniquely defined.
  | It can be anywhere in the energy gap, as long as it correctly separates occupied and unoccupied states.
  | In systems with a gap, the physically relevant chemical potential is the VBM or HOMO.

  | Chemical potential (Fermi level):    -6.71033211 eV
  What follows are estimated values for band gap, HOMO, LUMO, etc.
  | They are estimated on a discrete k-point grid and not necessarily exact.
  | For converged numbers, create a DOS and/or band structure plot on a denser k-grid.

  Highest occupied state (VBM) at     -6.75922833 eV (relative to internal zero)
  | Occupation number:      1.83333329
  | K-point:       6 at    0.333333    0.000000    0.000000 (in units of recip. lattice)

  Lowest unoccupied state (CBM) at    -4.79500233 eV (relative to internal zero)
  | Occupation number:      0.00000000
  | K-point:      12 at    0.333333    0.666667    0.666667 (in units of recip. lattice)

  ESTIMATED overall HOMO-LUMO gap:      1.96422600 eV between HOMO at k-point 6 and LUMO at k-point 12
  | This appears to be an indirect band gap.
  | Smallest direct gap :      6.45435826 eV for k_point 3 at    0.000000    0.333333    0.000000 (in units of recip. lattice)
  However, this system has fractional occupation numbers. Since we use a finite k-point grid,
  this material is metallic within the approximate finite broadening function (occupation_type)
  applied to determine the occupation numbers.

  Total energy components:
  | Sum of eigenvalues            :        -164.24971868 Ha       -4469.46224905 eV
  | XC energy correction          :         -19.81914032 Ha        -539.30624767 eV
  | XC potential correction       :          26.18402194 Ha         712.50348879 eV
  | Free-atom electrostatic energy:        -131.82852980 Ha       -3587.23681246 eV
  | Hartree energy correction     :           0.35495546 Ha           9.65882954 eV
  | Entropy correction            :          -0.00008853 Ha          -0.00240908 eV
  | ---------------------------
  | Total energy                  :        -289.35841140 Ha       -7873.84299084 eV
  | Total energy, T -> 0          :        -289.35849993 Ha       -7873.84539992 eV  <-- do not rely on this value for anything but (periodic) metals
  | Electronic free energy        :        -289.35858846 Ha       -7873.84780900 eV

  Derived energy quantities:
  | Kinetic energy                :         289.56569417 Ha        7879.48344214 eV
  | Electrostatic energy          :        -559.10496525 Ha      -15214.02018531 eV
  | Energy correction for multipole
  | error in Hartree potential    :           0.00021940 Ha           0.00597008 eV
  | Sum of eigenvalues per atom                           :       -4469.46224905 eV
  | Total energy (T->0) per atom                          :       -7873.84539992 eV  <-- do not rely on this value for anything but (periodic) metals
  | Electronic free energy per atom                       :       -7873.84780900 eV
  Evaluating new KS density using the density matrix
  Evaluating density matrix
  Time summed over all CPUs for getting density from density matrix: real work        0.787 s, elapsed        0.890 s
  Integration grid: deviation in total charge (<rho> - N_e) =  -6.927792E-14

  Self-consistency convergence accuracy:
  | Change of charge density      :  0.5606E-02
  | Change of unmixed KS density  :  0.7915E-02
  | Change of sum of eigenvalues  :  0.2025E+00 eV
  | Change of total energy        :  0.2032E-03 eV


------------------------------------------------------------
  End self-consistency iteration #     3       :  max(cpu_time)    wall_clock(cpu1)
  | Time for this iteration                     :        0.097 s           0.097 s
  | Charge density update                       :        0.045 s           0.045 s
  | Density mixing                              :        0.000 s           0.000 s
  | Hartree multipole update                    :        0.001 s           0.001 s
  | Hartree multipole summation                 :        0.009 s           0.009 s
  | Integration                                 :        0.041 s           0.041 s
  | Solution of K.-S. eqns.                     :        0.001 s           0.000 s
  | Total energy evaluation                     :        0.000 s           0.000 s

  Partial memory accounting:
  | Current value for overall tracked memory usage:
  |   Minimum:        0.833 MB (on task 19)
  |   Maximum:        0.845 MB (on task  2)
  |   Average:        0.837 MB
  | Peak value for overall tracked memory usage:
  |   Minimum:        6.497 MB (on task  2 after allocating wave)
  |   Maximum:        7.929 MB (on task  6 after allocating wave)
  |   Average:        7.296 MB
  | Largest tracked array allocation so far:
  |   Minimum:        3.728 MB (hamiltonian_shell on task  2)
  |   Maximum:        4.907 MB (hamiltonian_shell on task  6)
  |   Average:        4.384 MB
  Note:  These values currently only include a subset of arrays which are explicitly tracked.
  The "true" memory usage will be greater.
------------------------------------------------------------

------------------------------------------------------------
          Begin self-consistency iteration #    4

  Date     :  20240405, Time     :  073924.426
------------------------------------------------------------
  Pulay mixing of updated and previous charge densities.
  Available memory per node after mixing [GB]:     62.87
  Renormalizing the density to the exact electron count on the 3D integration grid.
  | Formal number of electrons (from input files) :      14.0000000000
  | Integrated number of electrons on 3D grid     :      14.0000000000
  | Charge integration error                      :      -0.0000000000
  | Normalization factor for density and gradient :       1.0000000000

  Evaluating partitioned Hartree potential by multipole expansion.
  | Original multipole sum: apparent total charge =   0.202481E-14
  | Sum of charges compensated after spline to logarithmic grids =  -0.122246E-05
  | Analytical far-field extrapolation by fixed multipoles:
  | Hartree multipole sum: apparent total charge =   0.000000E+00
  Summing up the Hartree potential.
  Time summed over all CPUs for potential: real work        0.006 s, elapsed        0.007 s
  | RMS charge density error from multipole expansion :   0.148579E-02
  | Average real-space part of the electrostatic potential :     -0.28345497 eV

  Integrating Hamiltonian matrix: batch-based integration.
  Time summed over all CPUs for integration: real work        0.651 s, elapsed        0.742 s

  Updating Kohn-Sham eigenvalues and eigenvectors using ELSI and the (modified) LAPACK eigensolver.

  Obtaining occupation numbers and electronic chemical potential using ELSI.
  | Note that, for insulating systems, the printed 'chemical potential' value is not uniquely defined.
  | It can be anywhere in the energy gap, as long as it correctly separates occupied and unoccupied states.
  | In systems with a gap, the physically relevant chemical potential is the VBM or HOMO.

  | Chemical potential (Fermi level):    -6.71122403 eV
  What follows are estimated values for band gap, HOMO, LUMO, etc.
  | They are estimated on a discrete k-point grid and not necessarily exact.
  | For converged numbers, create a DOS and/or band structure plot on a denser k-grid.

  Highest occupied state (VBM) at     -6.76012025 eV (relative to internal zero)
  | Occupation number:      1.83333329
  | K-point:       4 at    0.000000    0.333333    0.666667 (in units of recip. lattice)

  Lowest unoccupied state (CBM) at    -4.79609850 eV (relative to internal zero)
  | Occupation number:      0.00000000
  | K-point:      12 at    0.333333    0.666667    0.666667 (in units of recip. lattice)

  ESTIMATED overall HOMO-LUMO gap:      1.96402175 eV between HOMO at k-point 4 and LUMO at k-point 12
  | This appears to be an indirect band gap.
  | Smallest direct gap :      6.45370001 eV for k_point 3 at    0.000000    0.333333    0.000000 (in units of recip. lattice)
  However, this system has fractional occupation numbers. Since we use a finite k-point grid,
  this material is metallic within the approximate finite broadening function (occupation_type)
  applied to determine the occupation numbers.

  Total energy components:
  | Sum of eigenvalues            :        -164.25050326 Ha       -4469.48359842 eV
  | XC energy correction          :         -19.81936625 Ha        -539.31239568 eV
  | XC potential correction       :          26.18432378 Ha         712.51170229 eV
  | Free-atom electrostatic energy:        -131.82852980 Ha       -3587.23681246 eV
  | Hartree energy correction     :           0.35566429 Ha           9.67811769 eV
  | Entropy correction            :          -0.00008853 Ha          -0.00240908 eV
  | ---------------------------
  | Total energy                  :        -289.35841124 Ha       -7873.84298658 eV
  | Total energy, T -> 0          :        -289.35849977 Ha       -7873.84539566 eV  <-- do not rely on this value for anything but (periodic) metals
  | Electronic free energy        :        -289.35858830 Ha       -7873.84780474 eV

  Derived energy quantities:
  | Kinetic energy                :         289.56973140 Ha        7879.59330061 eV
  | Electrostatic energy          :        -559.10877638 Ha      -15214.12389152 eV
  | Energy correction for multipole
  | error in Hartree potential    :           0.00022037 Ha           0.00599663 eV
  | Sum of eigenvalues per atom                           :       -4469.48359842 eV
  | Total energy (T->0) per atom                          :       -7873.84539566 eV  <-- do not rely on this value for anything but (periodic) metals
  | Electronic free energy per atom                       :       -7873.84780474 eV
  Evaluating new KS density using the density matrix
  Evaluating density matrix
  Time summed over all CPUs for getting density from density matrix: real work        0.787 s, elapsed        0.889 s
  Integration grid: deviation in total charge (<rho> - N_e) =  -8.526513E-14

  Self-consistency convergence accuracy:
  | Change of charge density      :  0.5049E-03
  | Change of unmixed KS density  :  0.4428E-03
  | Change of sum of eigenvalues  : -0.2135E-01 eV
  | Change of total energy        :  0.4256E-05 eV


------------------------------------------------------------
  End self-consistency iteration #     4       :  max(cpu_time)    wall_clock(cpu1)
  | Time for this iteration                     :        0.097 s           0.097 s
  | Charge density update                       :        0.045 s           0.045 s
  | Density mixing                              :        0.000 s           0.000 s
  | Hartree multipole update                    :        0.001 s           0.001 s
  | Hartree multipole summation                 :        0.009 s           0.009 s
  | Integration                                 :        0.041 s           0.041 s
  | Solution of K.-S. eqns.                     :        0.001 s           0.001 s
  | Total energy evaluation                     :        0.000 s           0.000 s

  Partial memory accounting:
  | Current value for overall tracked memory usage:
  |   Minimum:        0.833 MB (on task 19)
  |   Maximum:        0.845 MB (on task  2)
  |   Average:        0.837 MB
  | Peak value for overall tracked memory usage:
  |   Minimum:        6.497 MB (on task  2 after allocating wave)
  |   Maximum:        7.929 MB (on task  6 after allocating wave)
  |   Average:        7.296 MB
  | Largest tracked array allocation so far:
  |   Minimum:        3.728 MB (hamiltonian_shell on task  2)
  |   Maximum:        4.907 MB (hamiltonian_shell on task  6)
  |   Average:        4.384 MB
  Note:  These values currently only include a subset of arrays which are explicitly tracked.
  The "true" memory usage will be greater.
------------------------------------------------------------

------------------------------------------------------------
          Begin self-consistency iteration #    5

  Date     :  20240405, Time     :  073924.523
------------------------------------------------------------
  Pulay mixing of updated and previous charge densities.
  Available memory per node after mixing [GB]:     62.87
  Renormalizing the density to the exact electron count on the 3D integration grid.
  | Formal number of electrons (from input files) :      14.0000000000
  | Integrated number of electrons on 3D grid     :      14.0000000000
  | Charge integration error                      :      -0.0000000000
  | Normalization factor for density and gradient :       1.0000000000

  Evaluating partitioned Hartree potential by multipole expansion.
  | Original multipole sum: apparent total charge =  -0.568473E-14
  | Sum of charges compensated after spline to logarithmic grids =  -0.120403E-05
  | Analytical far-field extrapolation by fixed multipoles:
  | Hartree multipole sum: apparent total charge =   0.000000E+00
  Summing up the Hartree potential.
  Time summed over all CPUs for potential: real work        0.006 s, elapsed        0.007 s
  | RMS charge density error from multipole expansion :   0.147040E-02
  | Average real-space part of the electrostatic potential :     -0.28068753 eV

  Integrating Hamiltonian matrix: batch-based integration.
  Time summed over all CPUs for integration: real work        0.650 s, elapsed        0.742 s

  Updating Kohn-Sham eigenvalues and eigenvectors using ELSI and the (modified) LAPACK eigensolver.

  Obtaining occupation numbers and electronic chemical potential using ELSI.
  | Note that, for insulating systems, the printed 'chemical potential' value is not uniquely defined.
  | It can be anywhere in the energy gap, as long as it correctly separates occupied and unoccupied states.
  | In systems with a gap, the physically relevant chemical potential is the VBM or HOMO.

  | Chemical potential (Fermi level):    -6.71067038 eV
  What follows are estimated values for band gap, HOMO, LUMO, etc.
  | They are estimated on a discrete k-point grid and not necessarily exact.
  | For converged numbers, create a DOS and/or band structure plot on a denser k-grid.

  Highest occupied state (VBM) at     -6.75956660 eV (relative to internal zero)
  | Occupation number:      1.83333330
  | K-point:       6 at    0.333333    0.000000    0.000000 (in units of recip. lattice)

  Lowest unoccupied state (CBM) at    -4.79551438 eV (relative to internal zero)
  | Occupation number:      0.00000000
  | K-point:      11 at    0.333333    0.666667    0.333333 (in units of recip. lattice)

  ESTIMATED overall HOMO-LUMO gap:      1.96405222 eV between HOMO at k-point 6 and LUMO at k-point 11
  | This appears to be an indirect band gap.
  | Smallest direct gap :      6.45399733 eV for k_point 6 at    0.333333    0.000000    0.000000 (in units of recip. lattice)
  However, this system has fractional occupation numbers. Since we use a finite k-point grid,
  this material is metallic within the approximate finite broadening function (occupation_type)
  applied to determine the occupation numbers.

  Total energy components:
  | Sum of eigenvalues            :        -164.25018241 Ha       -4469.47486784 eV
  | XC energy correction          :         -19.81924509 Ha        -539.30909854 eV
  | XC potential correction       :          26.18416184 Ha         712.50729563 eV
  | Free-atom electrostatic energy:        -131.82852980 Ha       -3587.23681246 eV
  | Hartree energy correction     :           0.35538406 Ha           9.67049219 eV
  | Entropy correction            :          -0.00008853 Ha          -0.00240908 eV
  | ---------------------------
  | Total energy                  :        -289.35841140 Ha       -7873.84299101 eV
  | Total energy, T -> 0          :        -289.35849994 Ha       -7873.84540009 eV  <-- do not rely on this value for anything but (periodic) metals
  | Electronic free energy        :        -289.35858847 Ha       -7873.84780917 eV

  Derived energy quantities:
  | Kinetic energy                :         289.56733386 Ha        7879.52806021 eV
  | Electrostatic energy          :        -559.10650017 Ha      -15214.06195268 eV
  | Energy correction for multipole
  | error in Hartree potential    :           0.00021542 Ha           0.00586179 eV
  | Sum of eigenvalues per atom                           :       -4469.47486784 eV
  | Total energy (T->0) per atom                          :       -7873.84540009 eV  <-- do not rely on this value for anything but (periodic) metals
  | Electronic free energy per atom                       :       -7873.84780917 eV
  Evaluating new KS density using the density matrix
  Evaluating density matrix
  Time summed over all CPUs for getting density from density matrix: real work        0.787 s, elapsed        0.891 s
  Integration grid: deviation in total charge (<rho> - N_e) =  -5.329071E-14

  Self-consistency convergence accuracy:
  | Change of charge density      :  0.3518E-03
  | Change of unmixed KS density  :  0.4944E-04
  | Change of sum of eigenvalues  :  0.8731E-02 eV
  | Change of total energy        : -0.4425E-05 eV


------------------------------------------------------------
  End self-consistency iteration #     5       :  max(cpu_time)    wall_clock(cpu1)
  | Time for this iteration                     :        0.097 s           0.097 s
  | Charge density update                       :        0.045 s           0.046 s
  | Density mixing                              :        0.000 s           0.000 s
  | Hartree multipole update                    :        0.001 s           0.000 s
  | Hartree multipole summation                 :        0.009 s           0.009 s
  | Integration                                 :        0.041 s           0.041 s
  | Solution of K.-S. eqns.                     :        0.001 s           0.001 s
  | Total energy evaluation                     :        0.000 s           0.000 s

  Partial memory accounting:
  | Current value for overall tracked memory usage:
  |   Minimum:        0.833 MB (on task 19)
  |   Maximum:        0.845 MB (on task  2)
  |   Average:        0.837 MB
  | Peak value for overall tracked memory usage:
  |   Minimum:        6.497 MB (on task  2 after allocating wave)
  |   Maximum:        7.929 MB (on task  6 after allocating wave)
  |   Average:        7.296 MB
  | Largest tracked array allocation so far:
  |   Minimum:        3.728 MB (hamiltonian_shell on task  2)
  |   Maximum:        4.907 MB (hamiltonian_shell on task  6)
  |   Average:        4.384 MB
  Note:  These values currently only include a subset of arrays which are explicitly tracked.
  The "true" memory usage will be greater.
------------------------------------------------------------

------------------------------------------------------------
          Begin self-consistency iteration #    6

  Date     :  20240405, Time     :  073924.621
------------------------------------------------------------
  Pulay mixing of updated and previous charge densities.
  Available memory per node after mixing [GB]:     62.87
  Renormalizing the density to the exact electron count on the 3D integration grid.
  | Formal number of electrons (from input files) :      14.0000000000
  | Integrated number of electrons on 3D grid     :      14.0000000000
  | Charge integration error                      :       0.0000000000
  | Normalization factor for density and gradient :       1.0000000000

  Evaluating partitioned Hartree potential by multipole expansion.
  | Original multipole sum: apparent total charge =  -0.883461E-15
  | Sum of charges compensated after spline to logarithmic grids =  -0.120383E-05
  | Analytical far-field extrapolation by fixed multipoles:
  | Hartree multipole sum: apparent total charge =   0.000000E+00
  Summing up the Hartree potential.
  Time summed over all CPUs for potential: real work        0.006 s, elapsed        0.007 s
  | RMS charge density error from multipole expansion :   0.147028E-02
  | Average real-space part of the electrostatic potential :     -0.28066542 eV

  Integrating Hamiltonian matrix: batch-based integration.
  Time summed over all CPUs for integration: real work        0.651 s, elapsed        0.742 s

  Updating Kohn-Sham eigenvalues and eigenvectors using ELSI and the (modified) LAPACK eigensolver.

  Obtaining occupation numbers and electronic chemical potential using ELSI.
  | Note that, for insulating systems, the printed 'chemical potential' value is not uniquely defined.
  | It can be anywhere in the energy gap, as long as it correctly separates occupied and unoccupied states.
  | In systems with a gap, the physically relevant chemical potential is the VBM or HOMO.

  | Chemical potential (Fermi level):    -6.71066831 eV
  What follows are estimated values for band gap, HOMO, LUMO, etc.
  | They are estimated on a discrete k-point grid and not necessarily exact.
  | For converged numbers, create a DOS and/or band structure plot on a denser k-grid.

  Highest occupied state (VBM) at     -6.75956453 eV (relative to internal zero)
  | Occupation number:      1.83333330
  | K-point:       4 at    0.000000    0.333333    0.666667 (in units of recip. lattice)

  Lowest unoccupied state (CBM) at    -4.79551272 eV (relative to internal zero)
  | Occupation number:      0.00000000
  | K-point:      11 at    0.333333    0.666667    0.333333 (in units of recip. lattice)

  ESTIMATED overall HOMO-LUMO gap:      1.96405181 eV between HOMO at k-point 4 and LUMO at k-point 11
  | This appears to be an indirect band gap.
  | Smallest direct gap :      6.45399727 eV for k_point 4 at    0.000000    0.333333    0.666667 (in units of recip. lattice)
  However, this system has fractional occupation numbers. Since we use a finite k-point grid,
  this material is metallic within the approximate finite broadening function (occupation_type)
  applied to determine the occupation numbers.

  Total energy components:
  | Sum of eigenvalues            :        -164.25020597 Ha       -4469.47550881 eV
  | XC energy correction          :         -19.81924090 Ha        -539.30898460 eV
  | XC potential correction       :          26.18415627 Ha         712.50714420 eV
  | Free-atom electrostatic energy:        -131.82852980 Ha       -3587.23681246 eV
  | Hartree energy correction     :           0.35540899 Ha           9.67117060 eV
  | Entropy correction            :          -0.00008853 Ha          -0.00240908 eV
  | ---------------------------
  | Total energy                  :        -289.35841141 Ha       -7873.84299107 eV
  | Total energy, T -> 0          :        -289.35849994 Ha       -7873.84540014 eV  <-- do not rely on this value for anything but (periodic) metals
  | Electronic free energy        :        -289.35858847 Ha       -7873.84780922 eV

  Derived energy quantities:
  | Kinetic energy                :         289.56726829 Ha        7879.52627611 eV
  | Electrostatic energy          :        -559.10643880 Ha      -15214.06028257 eV
  | Energy correction for multipole
  | error in Hartree potential    :           0.00021536 Ha           0.00586024 eV
  | Sum of eigenvalues per atom                           :       -4469.47550881 eV
  | Total energy (T->0) per atom                          :       -7873.84540014 eV  <-- do not rely on this value for anything but (periodic) metals
  | Electronic free energy per atom                       :       -7873.84780922 eV

  Self-consistency convergence accuracy:
  | Change of charge density      :  0.2590E-05
  | Change of unmixed KS density  :  0.2707E-04
  | Change of sum of eigenvalues  : -0.6410E-03 eV
  | Change of total energy        : -0.5660E-07 eV

  Writing Kohn-Sham eigenvalues.
  K-point:       1 at    0.000000    0.000000    0.000000 (in units of recip. lattice)

  State    Occupation    Eigenvalue [Ha]    Eigenvalue [eV]
      1       2.00000         -65.541377        -1783.47160
      2       2.00000          -5.133172         -139.68073
      3       2.00000          -3.547610          -96.53539
      4       2.00000          -3.547610          -96.53539
      5       2.00000          -3.547610          -96.53539
      6       2.00000          -0.696164          -18.94359
      7       0.00000           0.149773            4.07552
      8       0.00000           0.149773            4.07552
      9       0.00000           0.149773            4.07552
     10       0.00000           0.237708            6.46836

  What follows are estimated values for band gap, HOMO, LUMO, etc.
  | They are estimated on a discrete k-point grid and not necessarily exact.
  | For converged numbers, create a DOS and/or band structure plot on a denser k-grid.

  Highest occupied state (VBM) at     -6.75956453 eV (relative to internal zero)
  | Occupation number:      1.83333330
  | K-point:       4 at    0.000000    0.333333    0.666667 (in units of recip. lattice)

  Lowest unoccupied state (CBM) at    -4.79551272 eV (relative to internal zero)
  | Occupation number:      0.00000000
  | K-point:      11 at    0.333333    0.666667    0.333333 (in units of recip. lattice)

  ESTIMATED overall HOMO-LUMO gap:      1.96405181 eV between HOMO at k-point 4 and LUMO at k-point 11
  | This appears to be an indirect band gap.
  | Smallest direct gap :      6.45399727 eV for k_point 4 at    0.000000    0.333333    0.666667 (in units of recip. lattice)
  However, this system has fractional occupation numbers. Since we use a finite k-point grid,
  this material is metallic within the approximate finite broadening function (occupation_type)
  applied to determine the occupation numbers.

  | Chemical Potential                          :    -6.71066831 eV
  | Note that, for insulating systems, the printed 'chemical potential' value is not uniquely defined.
  | It can be anywhere in the energy gap, as long as it correctly separates occupied and unoccupied states.
  | In systems with a gap, the physically relevant chemical potential is the VBM or HOMO.

  Self-consistency cycle converged.


------------------------------------------------------------
  End self-consistency iteration #     6       :  max(cpu_time)    wall_clock(cpu1)
  | Time for this iteration                     :        0.052 s           0.052 s
  | Charge density update                       :        0.000 s           0.000 s
  | Density mixing                              :        0.000 s           0.000 s
  | Hartree multipole update                    :        0.001 s           0.001 s
  | Hartree multipole summation                 :        0.009 s           0.008 s
  | Integration                                 :        0.041 s           0.041 s
  | Solution of K.-S. eqns.                     :        0.001 s           0.001 s
  | Total energy evaluation                     :        0.000 s           0.000 s

  Partial memory accounting:
  | Current value for overall tracked memory usage:
  |   Minimum:        0.833 MB (on task 19)
  |   Maximum:        0.845 MB (on task  2)
  |   Average:        0.837 MB
  | Peak value for overall tracked memory usage:
  |   Minimum:        6.497 MB (on task  2 after allocating wave)
  |   Maximum:        7.929 MB (on task  6 after allocating wave)
  |   Average:        7.296 MB
  | Largest tracked array allocation so far:
  |   Minimum:        3.728 MB (hamiltonian_shell on task  2)
  |   Maximum:        4.907 MB (hamiltonian_shell on task  6)
  |   Average:        4.384 MB
  Note:  These values currently only include a subset of arrays which are explicitly tracked.
  The "true" memory usage will be greater.
------------------------------------------------------------

  Energy and forces in a compact form:
  | Total energy uncorrected      :         -0.787384299106564E+04 eV
  | Total energy corrected        :         -0.787384540014413E+04 eV  <-- do not rely on this value for anything but (periodic) metals
  | Electronic free energy        :         -0.787384780922261E+04 eV

  ------------------------------------ 
  Start decomposition of the XC Energy 
  ------------------------------------ 
  X and C from original XC functional choice 
  Hartree-Fock Energy :          0.000000000 Ha              0.000000000 eV
  X Energy            :        -18.747323734 Ha           -510.140634466 eV
  C Energy            :         -1.071917165 Ha            -29.168350137 eV
  XC Energy w/o HF    :        -19.819240899 Ha           -539.308984602 eV
  Total XC Energy     :        -19.819240899 Ha           -539.308984602 eV
  ------------------------------------ 
  LDA X and C from self-consistent density 
  X Energy LDA        :        -18.747323734 Ha           -510.140634466 eV
  C Energy LDA        :         -1.071917165 Ha            -29.168350137 eV
  ------------------------------------ 
  End decomposition of the XC Energy 
  ------------------------------------ 

------------------------------------------------------------

------------------------------------------------------------------------------
  Final output of selected total energy values:

  The following output summarizes some interesting total energy values
  at the end of a run (AFTER all relaxation, molecular dynamics, etc.).

  | Total energy of the DFT / Hartree-Fock s.c.f. calculation      :          -7873.842991066 eV
  | Final zero-broadening corrected energy (caution - metals only) :          -7873.845400144 eV
  | For reference only, the value of 1 Hartree used in FHI-aims is :             27.211384500 eV
  | For reference only, the overall average (free atom contribution
  | + realspace contribution) of the electrostatic potential after
  | s.c.f. convergence is                                          :            -16.337235924 eV

  Before relying on these values, please be sure to understand exactly which
  total energy value is referred to by a given number. Different objects may
  all carry the same name 'total energy'. Definitions:

  Total energy of the DFT / Hartree-Fock s.c.f. calculation:
  | Note that this energy does not include ANY quantities calculated after the
  | s.c.f. cycle, in particular not ANY RPA, MP2, etc. many-body perturbation terms.

  Final zero-broadening corrected energy:
  | For metallic systems only, a broadening of the occupation numbers at the Fermi
  | level can be extrapolated back to zero broadening by an electron-gas inspired
  | formula. For all systems that are not real metals, this value can be
  | meaningless and should be avoided.

------------------------------------------------------------------------------
  Methods described in the following list of references were used in this FHI-aims run.
  If you publish the results, please make sure to cite these reference if they apply.
  FHI-aims is an academic code, and for our developers (often, Ph.D. students
  and postdocs), scientific credit in the community is essential.
  Thank you for helping us!

  For any use of FHI-aims, please cite:

    Volker Blum, Ralf Gehrke, Felix Hanke, Paula Havu, Ville Havu,
    Xinguo Ren, Karsten Reuter, and Matthias Scheffler
    'Ab initio molecular simulations with numeric atom-centered orbitals'
    Computer Physics Communications 180, 2175-2196 (2009)
    http://doi.org/10.1016/j.cpc.2009.06.022


  The provided symmetry information was generated with SPGlib:

    Atsushi Togo, Yusuke Seto, Dimitar Pashov
    SPGlib 1.7.3 obtained from http://spglib.sourceforge.net
    Licence: New BSD license
    Copyright (C) 2008 Atsushi Togo


  The ELSI infrastructure was used in your run to solve the Kohn-Sham electronic structure.
  Please check out http://elsi-interchange.org to learn more.
  If scalability is important for your project, please acknowledge ELSI by citing:

    V. W-z. Yu, F. Corsetti, A. Garcia, W. P. Huhn, M. Jacquelin, W. Jia,
    B. Lange, L. Lin, J. Lu, W. Mi, A. Seifitokaldani, A. Vazquez-Mayagoitia,
    C. Yang, H. Yang, and V. Blum
    'ELSI: A unified software interface for Kohn-Sham electronic structure solvers'
    Computer Physics Communications 222, 267-285 (2018).
    http://doi.org/10.1016/j.cpc.2017.09.007


  For the real-space grid partitioning and parallelization used in this calculation, please cite:

    Ville Havu, Volker Blum, Paula Havu, and Matthias Scheffler,
    'Efficient O(N) integration for all-electron electronic structure calculation'
    'using numerically tabulated basis functions'
    Journal of Computational Physics 228, 8367-8379 (2009).
    http://doi.org/10.1016/j.jcp.2009.08.008

  Of course, there are many other important community references, e.g., those cited in the
  above references. Our list is limited to references that describe implementations in the
  FHI-aims code. The reason is purely practical (length of this list) - please credit others as well.

 * A warning was issued further up regarding the CPU load.
   Some CPUs do not participate in the eigenvalue solution.
   In corner cases, this may be the correct behavior. Otherwise,
   consider using a scalapack/elpa version of the code for a parallel treatment.

------------------------------------------------------------
          Leaving FHI-aims.
          Date     :  20240405, Time     :  073924.674

          Computational steps:
          | Number of self-consistency cycles          :            6
          | Number of SCF (re)initializations          :            1

          Detailed time accounting                     :  max(cpu_time)    wall_clock(cpu1)
          | Total time                                  :        1.009 s           1.016 s
          | Preparation time                            :        0.182 s           0.181 s
          | Boundary condition initalization            :        0.063 s           0.062 s
          | Grid partitioning                           :        0.006 s           0.005 s
          | Preloading free-atom quantities on grid     :        0.023 s           0.023 s
          | Free-atom superposition energy              :        0.002 s           0.002 s
          | Total time for integrations                 :        0.329 s           0.329 s
          | Total time for solution of K.-S. equations  :        0.007 s           0.006 s
          | Total time for density update               :        0.279 s           0.280 s
          | Total time for mixing                       :        0.001 s           0.000 s
          | Total time for Hartree multipole update     :        0.004 s           0.005 s
          | Total time for Hartree multipole sum        :        0.052 s           0.052 s
          | Total time for total energy evaluation      :        0.001 s           0.000 s
          | Total time for scaled ZORA corrections      :        0.000 s           0.000 s

          Partial memory accounting:
          | Residual value for overall tracked memory usage across tasks:     0.000000 MB (should be 0.000000 MB)
          | Peak values for overall tracked memory usage:
          |   Minimum:        6.497 MB (on task  2 after allocating wave)
          |   Maximum:        7.929 MB (on task  6 after allocating wave)
          |   Average:        7.296 MB
          | Largest tracked array allocation:
          |   Minimum:        3.728 MB (hamiltonian_shell on task  2)
          |   Maximum:        4.907 MB (hamiltonian_shell on task  6)
          |   Average:        4.384 MB
          Note:  These values currently only include a subset of arrays which are explicitly tracked.
          The "true" memory usage will be greater.

          Have a nice day.
------------------------------------------------------------
